<svg width="187" height="154" viewBox="0 0 187 154" fill="none" xmlns="http://www.w3.org/2000/svg">
<g clip-path="url(#clip0_145_3502)">
<path d="M8.54035 154C2.59522 154 0 150.314 0 145.643V140.603C0 134.117 4.26746 131.591 9.27331 131.591C15.3162 131.591 17.9603 134.925 17.9603 138.259C17.9603 143.123 13.0467 144.317 10.8804 144.955C10.256 145.137 7.95398 145.83 7.43819 145.984C5.41305 146.578 4.83211 147.244 4.83211 147.998C4.83211 149.285 5.9397 150.402 8.54035 150.402C10.8044 150.402 12.4549 149.621 12.7318 147.227H17.4608C16.9775 151.013 14.7244 154 8.54035 154ZM9.07242 135.2C6.44462 135.2 4.72352 136.983 4.72352 140.02V143.206C4.72352 143.206 8.27974 142.155 9.76195 141.698C11.0053 141.318 13.2313 140.515 13.2313 138.529C13.2313 136.796 11.8468 135.206 9.07242 135.206" fill="#FFB71B"/>
<path d="M19.9699 152.944C19.8015 152.239 19.8341 151.112 20.0567 149.555C20.3933 147.26 21.0394 145.082 21.995 143.018C22.2285 142.507 22.5488 142.133 22.9506 141.896C23.3523 141.659 23.8844 141.538 24.5414 141.538C24.8997 141.538 25.1386 141.582 25.2689 141.671C25.3992 141.759 25.4426 141.929 25.4046 142.171C25.3612 142.452 25.1277 143.09 24.7097 144.075C24.4219 144.779 24.1885 145.395 24.0039 145.912C23.8193 146.435 23.6292 147.079 23.4446 147.854C24.1287 146.479 24.878 145.313 25.6924 144.361C26.5068 143.409 27.3049 142.699 28.0813 142.232C28.8577 141.764 29.5635 141.533 30.1879 141.533C30.8122 141.533 31.2303 141.676 31.442 141.957C31.6538 142.237 31.7081 142.672 31.6158 143.255C31.5235 143.838 31.1814 144.84 30.6005 146.325C30.3562 146.958 30.177 147.436 30.0739 147.755C31.3172 145.588 32.5659 144.009 33.8201 143.018C35.0743 142.028 36.1764 141.538 37.1211 141.538C38.283 141.538 38.7554 142.111 38.549 143.261C38.4242 143.948 38.0061 145.192 37.2949 146.991C36.6868 148.526 36.3393 149.538 36.2524 150.033C36.1276 150.737 36.3176 151.09 36.8279 151.09C37.1754 151.09 37.6315 150.875 38.1907 150.44C38.7499 150.011 39.5263 149.307 40.5145 148.339C40.7696 148.091 41.0303 147.97 41.2963 147.97C41.5243 147.97 41.6872 148.075 41.7795 148.289C41.8718 148.498 41.8827 148.79 41.8121 149.164C41.6763 149.868 41.4103 150.418 41.0031 150.803C40.0747 151.739 39.1246 152.503 38.1527 153.103C37.1809 153.703 36.1493 154.005 35.0526 154.005C34.1676 154.005 33.5378 153.747 33.1794 153.224C32.8157 152.707 32.7179 151.948 32.8862 150.963C32.9731 150.468 33.2446 149.588 33.7115 148.317C34.135 147.205 34.3793 146.441 34.4553 146.017C34.5042 145.736 34.4336 145.593 34.2382 145.593C34.0101 145.593 33.6301 145.89 33.1034 146.479C32.5768 147.068 32.023 147.849 31.4366 148.823C30.8502 149.791 30.3399 150.814 29.9001 151.893C29.5689 152.74 29.254 153.301 28.95 153.587C28.6514 153.868 28.2224 154.011 27.6687 154.011C27.1149 154.011 26.7077 153.73 26.5068 153.18C26.3059 152.625 26.2733 151.948 26.3982 151.156C26.5068 150.484 26.7457 149.516 27.1257 148.245C27.4461 147.117 27.6361 146.375 27.6904 146.022C27.7338 145.742 27.6578 145.599 27.4678 145.599C27.2017 145.599 26.8162 145.918 26.3113 146.551C25.8064 147.183 25.2852 147.998 24.7531 148.982C24.221 149.973 23.7704 150.941 23.3958 151.893C23.0754 152.724 22.766 153.279 22.4728 153.571C22.1742 153.862 21.7561 154.005 21.2186 154.005C20.5562 154.005 20.1436 153.653 19.9753 152.949L19.9699 152.944Z" fill="#585A63"/>
<path d="M48.2731 148.289C48.1863 148.08 48.0234 147.97 47.7954 147.97C47.5293 147.97 47.2687 148.091 47.0081 148.339C46.0308 149.291 45.2599 149.989 44.7006 150.429C44.1414 150.87 43.7071 151.09 43.3922 151.09C43.061 151.09 42.8492 150.947 42.7624 150.666C42.6755 150.385 42.6864 149.978 42.7841 149.45C42.9144 148.762 43.3759 147.447 44.174 145.511C44.8201 143.904 45.1839 142.881 45.2707 142.441C45.3847 141.841 44.9884 141.539 44.0817 141.539C43.4953 141.539 43.0447 141.643 42.7352 141.858C42.4258 142.067 42.1434 142.457 41.8774 143.024C41.3562 144.097 40.8784 145.258 40.444 146.501C40.0097 147.745 39.7219 148.762 39.5754 149.555C39.3256 150.897 39.3853 151.97 39.7491 152.784C40.1129 153.593 40.8567 154 41.9914 154C43.4899 154 45.3087 152.933 47.4642 150.798C47.8768 150.413 48.1537 149.863 48.2949 149.159C48.3709 148.79 48.36 148.498 48.2731 148.284V148.289Z" fill="#585A63"/>
<path d="M42.6646 139.899C43.5713 139.354 44.2229 139.376 44.7821 139.299C45.8625 139.14 46.5901 138.92 47.057 138.628C47.6379 138.27 48.056 137.907 48.2623 137.11C48.4306 136.455 48.3383 135.932 47.9854 135.542C47.6271 135.151 47.0896 134.931 46.3675 134.881C45.5693 134.826 44.8418 135.008 44.1849 135.437C43.6636 135.778 43.2999 136.207 43.0827 136.724C43.0718 136.747 43.0556 136.769 43.0447 136.796C42.7678 137.495 42.4963 138.936 42.366 139.701C42.3389 139.872 42.5181 139.993 42.6646 139.905V139.899Z" fill="#B0B720"/>
<path d="M56.8774 148.289C56.9643 148.498 56.9643 148.79 56.8828 149.164C56.7308 149.868 56.4431 150.418 56.025 150.803C55.0694 151.739 54.0867 152.504 53.0769 153.103C52.067 153.703 51.0083 154.006 49.8953 154.006C48.3642 154.006 47.3706 153.301 46.9091 151.887C46.4477 150.479 46.4368 148.652 46.8766 146.413C47.3001 144.262 48.0656 141.808 49.1786 139.057C50.2971 136.306 51.611 133.941 53.1257 131.965C54.6514 129.99 56.1933 129 57.7461 129C58.6257 129 59.2283 129.391 59.5595 130.177C59.8907 130.964 59.8961 132.086 59.5758 133.55C59.1197 135.652 57.9958 138.083 56.2205 140.851C54.4559 143.618 52.295 146.364 49.7433 149.076C49.7161 149.802 49.8138 150.314 50.031 150.622C50.2482 150.93 50.5848 151.084 51.0409 151.084C51.7575 151.084 52.4308 150.875 53.0606 150.462C53.6904 150.05 54.5374 149.34 55.5961 148.333C55.8621 148.086 56.1227 147.965 56.3888 147.965C56.6168 147.965 56.7742 148.069 56.8611 148.284L56.8774 148.289ZM54.7274 133.82C53.8967 135.283 53.066 137.099 52.2245 139.272C51.3884 141.439 50.7477 143.525 50.3025 145.516C51.9856 143.453 53.4189 141.384 54.6079 139.31C55.797 137.236 56.5788 135.349 56.9426 133.638C57.2249 132.296 57.1163 131.63 56.6059 131.63C56.1879 131.63 55.5635 132.362 54.7328 133.825L54.7274 133.82Z" fill="#585A63"/>
<path d="M64.9179 149.312C64.9994 149.521 65.0482 149.879 64.9342 150.264C64.7496 150.886 64.4076 151.326 64.0004 151.788C63.3326 152.498 62.4639 152.944 61.5735 153.367C60.683 153.791 59.6895 154 58.5928 154C56.9205 154 55.7369 153.494 55.0311 152.481C54.3253 151.469 54.1516 150.094 54.5207 148.366C54.7814 147.15 55.2809 146.017 56.0192 144.966C56.7576 143.915 57.6535 143.084 58.7068 142.468C59.7601 141.852 60.8676 141.544 62.0295 141.544C63.0611 141.544 63.8212 141.847 64.3098 142.457C64.7931 143.068 64.9125 143.893 64.6682 144.933C64.3859 146.149 63.7072 147.194 62.6322 148.069C61.5626 148.944 59.9229 149.632 57.7241 150.143C57.9629 150.957 58.5819 151.359 59.5809 151.359C60.2976 151.359 60.9274 151.194 61.4649 150.858C62.0078 150.523 62.8331 150.154 63.6312 149.362C63.9026 149.098 64.1687 148.966 64.4347 148.966C64.6627 148.966 64.8311 149.103 64.9179 149.318V149.312ZM59.076 145.274C58.457 146.033 58.0281 146.952 57.7946 148.025L57.7838 148.08C58.8751 147.832 59.7818 147.464 60.493 146.969C61.2043 146.474 61.6332 145.901 61.7852 145.252C61.8612 144.917 61.8286 144.647 61.6875 144.443C61.5463 144.24 61.3183 144.141 60.9979 144.141C60.341 144.141 59.7003 144.52 59.0814 145.28L59.076 145.274Z" fill="#585A63"/>
</g>
<g clip-path="url(#clip1_145_3502)">
<path d="M136.922 145.288H138.974V132.111H140.973V130.326H136.922V145.288Z" fill="#795035"/>
<path d="M131.777 137.117V132.193H134.789V130.407H126.687V132.193H129.699V137.117C129.699 137.415 129.645 137.685 129.539 137.82C128.872 138.686 125.994 142.095 125.994 142.095L127.46 143.394C127.46 143.394 129.832 140.553 130.818 139.308L134.416 143.15L135.722 141.825L131.911 137.766C131.911 137.766 131.804 137.36 131.804 137.144" fill="#795035"/>
<path d="M153.125 141.338L155.204 141.311V130.326H150.727V132.138H153.125V134.141H150.727V135.926H153.125V141.338Z" fill="#795035"/>
<path d="M146.943 140.066H144.891V145.315H155.498V143.529H146.943V140.066Z" fill="#795035"/>
<path d="M144.358 135.358V133.302C144.358 132.22 145.211 131.733 146.037 131.733C146.89 131.733 147.716 132.247 147.716 133.302V135.358C147.716 136.332 146.863 136.846 146.037 136.873C145.211 136.873 144.358 136.332 144.358 135.358ZM146.037 138.659H146.304C148.356 138.524 149.768 137.198 149.768 135.331V133.329C149.768 131.462 148.329 130.082 146.304 129.947H145.744C143.718 130.082 142.279 131.462 142.279 133.329V135.331C142.279 137.198 143.692 138.524 145.744 138.659H146.037Z" fill="#795035"/>
<path d="M178.976 136.143C178.976 137.198 178.043 137.766 177.19 137.766C176.338 137.766 175.378 137.198 175.378 136.17V133.518C175.378 132.355 176.284 131.841 177.19 131.841C178.097 131.841 178.976 132.409 178.976 133.491V136.17V136.143ZM180.762 131.976C180.149 130.732 178.816 129.974 177.19 129.974C174.898 129.974 173.246 131.462 173.246 133.491V136.116C173.246 138.118 174.898 139.579 177.19 139.579C178.576 139.579 179.776 139.011 180.495 138.037C180.548 137.929 181.081 137.036 181.081 136.116V133.464C181.081 132.896 180.788 132.085 180.762 132.003V131.976Z" fill="#795035"/>
<path d="M182.922 130.353V141.716H172.635V143.583H182.922V145.288H185.001V130.353H182.922Z" fill="#795035"/>
<path d="M171.089 139.525H157.311V141.338H163.174V145.315H165.226V141.338H171.089V139.525Z" fill="#795035"/>
<path d="M166.158 134.547L165.412 134.114C165.412 134.114 165.226 133.924 165.226 133.789V132.139H169.596V130.272H158.776V132.139H163.147V133.789C163.147 133.789 163.067 134.033 162.96 134.114L162.214 134.547L158.43 136.792L159.389 138.47L164.16 135.629L168.93 138.47L169.89 136.792L166.105 134.547H166.158Z" fill="#795035"/>
<path d="M119.971 139.2C119.731 139.2 119.651 139.119 119.491 139.011C119.305 138.876 119.038 138.659 118.585 138.659C118.132 138.659 117.866 138.849 117.679 139.011C117.519 139.119 117.439 139.2 117.199 139.2C116.96 139.2 116.88 139.119 116.72 139.011C116.533 138.876 116.267 138.659 115.814 138.659C115.361 138.659 115.094 138.849 114.907 139.011C114.748 139.119 114.641 139.2 114.428 139.2C114.215 139.2 114.108 139.119 113.948 139.011C113.761 138.876 113.495 138.659 113.042 138.659C112.589 138.659 112.322 138.849 112.109 139.011C111.949 139.119 111.869 139.2 111.629 139.2C111.39 139.2 111.31 139.119 111.15 139.011C110.963 138.876 110.697 138.659 110.244 138.659C109.87 138.659 109.631 138.794 109.471 138.903L109.977 139.417C109.977 139.417 110.137 139.363 110.244 139.363C110.483 139.363 110.563 139.444 110.723 139.552C110.91 139.687 111.176 139.904 111.629 139.904C112.082 139.904 112.349 139.714 112.536 139.552C112.695 139.417 112.775 139.363 113.015 139.363C113.255 139.363 113.335 139.444 113.495 139.552C113.682 139.687 113.948 139.904 114.401 139.904C114.854 139.904 115.121 139.714 115.307 139.552C115.467 139.417 115.574 139.363 115.787 139.363C116 139.363 116.107 139.444 116.267 139.552C116.453 139.687 116.72 139.904 117.173 139.904C117.626 139.904 117.892 139.714 118.079 139.552C118.239 139.417 118.345 139.363 118.559 139.363C118.772 139.363 118.878 139.444 119.038 139.552C119.225 139.687 119.491 139.904 119.944 139.904C120.024 139.904 120.104 139.904 120.184 139.904V139.173C120.184 139.173 120.051 139.2 119.944 139.2" fill="#795035"/>
<path d="M119.971 141.121C119.731 141.121 119.652 141.04 119.492 140.932C119.305 140.797 119.039 140.58 118.585 140.58C118.132 140.58 117.866 140.769 117.679 140.932C117.519 141.067 117.439 141.121 117.2 141.121C116.96 141.121 116.88 141.04 116.72 140.932C116.533 140.797 116.267 140.58 115.814 140.58C115.361 140.58 115.094 140.769 114.908 140.932C114.748 141.067 114.641 141.121 114.428 141.121C114.215 141.121 114.108 141.04 113.948 140.932C113.762 140.797 113.495 140.58 113.042 140.58C112.589 140.58 112.323 140.769 112.109 140.932C111.949 141.04 111.869 141.121 111.656 141.121L112.216 141.689C112.216 141.689 112.456 141.554 112.536 141.473C112.696 141.338 112.776 141.284 113.015 141.284C113.255 141.284 113.335 141.365 113.495 141.473C113.682 141.608 113.948 141.825 114.401 141.825C114.854 141.825 115.121 141.635 115.307 141.473C115.467 141.338 115.574 141.284 115.787 141.284C116 141.284 116.107 141.365 116.267 141.473C116.453 141.608 116.72 141.825 117.173 141.825C117.626 141.825 117.893 141.635 118.079 141.473C118.239 141.338 118.346 141.284 118.559 141.284C118.772 141.284 118.879 141.365 119.039 141.473C119.225 141.608 119.492 141.825 119.945 141.825C120.025 141.825 120.105 141.825 120.185 141.825V141.094C120.185 141.094 120.051 141.121 119.945 141.121" fill="#795035"/>
<path d="M119.972 143.042C119.732 143.042 119.652 142.961 119.492 142.853C119.306 142.69 119.039 142.501 118.586 142.501C118.133 142.501 117.867 142.69 117.68 142.853C117.52 142.961 117.44 143.042 117.201 143.042C116.961 143.042 116.881 142.961 116.721 142.853C116.534 142.69 116.268 142.501 115.815 142.501C115.362 142.501 115.095 142.69 114.909 142.853C114.749 142.961 114.642 143.042 114.429 143.042C114.216 143.042 114.109 142.961 113.949 142.853C113.763 142.717 113.496 142.501 113.043 142.501L114.296 143.746C114.296 143.746 114.402 143.746 114.429 143.746C114.909 143.746 115.148 143.556 115.335 143.394C115.495 143.259 115.601 143.204 115.815 143.204C116.028 143.204 116.134 143.286 116.294 143.394C116.481 143.529 116.747 143.746 117.201 143.746C117.654 143.746 117.92 143.556 118.107 143.394C118.267 143.259 118.373 143.204 118.586 143.204C118.8 143.204 118.906 143.286 119.066 143.394C119.253 143.529 119.519 143.746 119.972 143.746C120.052 143.746 120.132 143.746 120.212 143.746V143.015C120.212 143.015 120.079 143.042 119.972 143.042Z" fill="#795035"/>
<path d="M119.972 144.963C119.732 144.963 119.652 144.882 119.492 144.774C119.305 144.639 119.039 144.422 118.586 144.422C118.133 144.422 117.866 144.612 117.68 144.774C117.52 144.882 117.44 144.963 117.2 144.963C116.96 144.963 116.88 144.882 116.72 144.774C116.534 144.639 116.267 144.422 115.814 144.422C115.521 144.422 115.308 144.503 115.121 144.612L115.654 145.153C115.654 145.153 115.734 145.153 115.787 145.153C116.027 145.153 116.107 145.234 116.267 145.342C116.454 145.477 116.72 145.694 117.173 145.694C117.626 145.694 117.893 145.504 118.079 145.342C118.239 145.207 118.346 145.153 118.559 145.153C118.772 145.153 118.879 145.234 119.039 145.342C119.225 145.477 119.492 145.694 119.945 145.694C120.025 145.694 120.105 145.694 120.185 145.694V144.963C120.185 144.963 120.052 144.99 119.945 144.99" fill="#795035"/>
<path d="M119.971 146.857C119.731 146.857 119.651 146.776 119.491 146.668C119.305 146.532 119.038 146.316 118.585 146.316C118.132 146.316 117.866 146.505 117.679 146.668C117.573 146.749 117.493 146.83 117.359 146.83L117.892 147.371C117.892 147.371 118.052 147.263 118.106 147.209C118.266 147.101 118.372 147.019 118.585 147.019C118.799 147.019 118.905 147.101 119.065 147.209C119.252 147.344 119.518 147.561 119.971 147.561C120.051 147.561 120.131 147.561 120.211 147.561V146.83C120.211 146.83 120.078 146.857 119.971 146.857Z" fill="#795035"/>
<path d="M119.973 148.778C119.733 148.778 119.653 148.697 119.493 148.589C119.333 148.454 119.12 148.291 118.773 148.264L119.999 149.482C119.999 149.482 120.133 149.482 120.213 149.482V148.751C120.213 148.751 120.079 148.778 119.973 148.778Z" fill="#795035"/>
<path d="M96.2799 139.308C96.2799 139.66 96.0134 139.931 95.667 139.931C95.3205 139.931 95.0273 139.66 95.0273 139.308C95.0273 138.957 95.3205 138.686 95.667 138.686C96.0134 138.686 96.2799 138.957 96.2799 139.308Z" fill="#795035"/>
<path d="M98.5436 139.308C98.5436 139.66 98.2771 139.931 97.9306 139.931C97.5842 139.931 97.291 139.66 97.291 139.308C97.291 138.957 97.5575 138.686 97.9306 138.686C98.3037 138.686 98.5436 138.957 98.5436 139.308Z" fill="#795035"/>
<path d="M100.784 139.308C100.784 139.66 100.491 139.931 100.144 139.931C99.7978 139.931 99.5312 139.66 99.5312 139.308C99.5312 138.957 99.7978 138.686 100.144 138.686C100.491 138.686 100.784 138.957 100.784 139.308Z" fill="#795035"/>
<path d="M103.021 139.308C103.021 139.66 102.728 139.931 102.382 139.931C102.035 139.931 101.742 139.66 101.742 139.308C101.742 138.957 102.035 138.686 102.382 138.686C102.728 138.686 103.021 138.957 103.021 139.308Z" fill="#795035"/>
<path d="M105.288 139.308C105.288 139.66 105.021 139.931 104.675 139.931C104.328 139.931 104.035 139.66 104.035 139.308C104.035 138.957 104.328 138.686 104.675 138.686C105.021 138.686 105.288 138.957 105.288 139.308Z" fill="#795035"/>
<path d="M96.2799 141.527C96.2799 141.879 96.0134 142.149 95.667 142.149C95.3205 142.149 95.0273 141.879 95.0273 141.527C95.0273 141.175 95.3205 140.905 95.667 140.905C96.0134 140.905 96.2799 141.175 96.2799 141.527Z" fill="#795035"/>
<path d="M98.5436 141.527C98.5436 141.879 98.2771 142.149 97.9306 142.149C97.5842 142.149 97.291 141.879 97.291 141.527C97.291 141.175 97.5575 140.905 97.9306 140.905C98.3037 140.905 98.5436 141.175 98.5436 141.527Z" fill="#795035"/>
<path d="M100.784 141.527C100.784 141.879 100.491 142.149 100.144 142.149C99.7978 142.149 99.5312 141.879 99.5312 141.527C99.5312 141.175 99.7978 140.905 100.144 140.905C100.491 140.905 100.784 141.175 100.784 141.527Z" fill="#795035"/>
<path d="M103.021 141.527C103.021 141.879 102.728 142.149 102.382 142.149C102.035 142.149 101.742 141.879 101.742 141.527C101.742 141.175 102.035 140.905 102.382 140.905C102.728 140.905 103.021 141.175 103.021 141.527Z" fill="#795035"/>
<path d="M96.2799 143.773C96.2799 144.124 96.0134 144.395 95.667 144.395C95.3205 144.395 95.0273 144.124 95.0273 143.773C95.0273 143.421 95.3205 143.15 95.667 143.15C96.0134 143.15 96.2799 143.421 96.2799 143.773Z" fill="#795035"/>
<path d="M98.5436 143.773C98.5436 144.124 98.2771 144.395 97.9306 144.395C97.5842 144.395 97.291 144.124 97.291 143.773C97.291 143.421 97.5575 143.15 97.9306 143.15C98.3037 143.15 98.5436 143.421 98.5436 143.773Z" fill="#795035"/>
<path d="M100.784 143.773C100.784 144.124 100.491 144.395 100.144 144.395C99.7978 144.395 99.5312 144.124 99.5312 143.773C99.5312 143.421 99.7978 143.15 100.144 143.15C100.491 143.15 100.784 143.421 100.784 143.773Z" fill="#795035"/>
<path d="M96.2799 145.991C96.2799 146.343 96.0134 146.614 95.667 146.614C95.3205 146.614 95.0273 146.343 95.0273 145.991C95.0273 145.64 95.3205 145.369 95.667 145.369C96.0134 145.369 96.2799 145.64 96.2799 145.991Z" fill="#795035"/>
<path d="M98.5436 145.991C98.5436 146.343 98.2771 146.614 97.9306 146.614C97.5842 146.614 97.291 146.343 97.291 145.991C97.291 145.64 97.5575 145.369 97.9306 145.369C98.3037 145.369 98.5436 145.64 98.5436 145.991Z" fill="#795035"/>
<path d="M96.2799 148.237C96.2799 148.589 96.0134 148.859 95.667 148.859C95.3205 148.859 95.0273 148.589 95.0273 148.237C95.0273 147.885 95.3205 147.615 95.667 147.615C96.0134 147.615 96.2799 147.885 96.2799 148.237Z" fill="#795035"/>
<path d="M120.185 129H95V130.109H120.185V129Z" fill="#795035"/>
<path d="M120.185 131.678H95V132.788H120.185V131.678Z" fill="#795035"/>
<path d="M120.185 134.357H95V135.466H120.185V134.357Z" fill="#795035"/>
<path d="M120.185 137.063H95V138.172H120.185V137.063Z" fill="#795035"/>
<path d="M102.996 142.745V154H104.115V141.608L102.996 142.745Z" fill="#795035"/>
<path d="M100.33 145.396V154H101.449V144.287L100.33 145.396Z" fill="#795035"/>
<path d="M97.666 148.075V154H98.7854V146.965L97.666 148.075Z" fill="#795035"/>
<path d="M95 150.726V154H96.1193V149.617L95 150.726Z" fill="#795035"/>
<path d="M105.688 140.066V154H106.78V138.957L105.688 140.066Z" fill="#795035"/>
<path d="M113.682 154H114.801V145.342L113.682 144.206V154Z" fill="#795035"/>
<path d="M111.018 154H112.137V142.664L111.018 141.554V154Z" fill="#795035"/>
<path d="M108.352 154H109.471V140.012L108.352 138.903V154Z" fill="#795035"/>
<path d="M119.066 154H120.186V150.699L119.066 149.59V154Z" fill="#795035"/>
<path d="M116.348 154H117.467V147.994L116.348 146.884V154Z" fill="#795035"/>
<path d="M128.927 150.212H128.341V150.104C128.341 149.942 128.287 149.806 128.181 149.698C128.074 149.59 127.914 149.536 127.728 149.536C127.541 149.536 127.381 149.59 127.275 149.671C127.168 149.779 127.115 149.888 127.115 150.023C127.115 150.131 127.141 150.212 127.221 150.32C127.301 150.402 127.381 150.483 127.515 150.51L128.074 150.753C128.074 150.753 128.287 150.834 128.341 150.862C128.421 150.889 128.501 150.943 128.581 150.997C128.661 151.051 128.741 151.132 128.794 151.186C128.847 151.267 128.9 151.349 128.927 151.457C128.954 151.565 128.98 151.673 128.98 151.809C128.98 152.16 128.874 152.431 128.634 152.647C128.394 152.864 128.101 152.972 127.728 152.972C127.355 152.972 127.035 152.864 126.795 152.674C126.555 152.485 126.422 152.214 126.422 151.863V151.754H127.008V151.89C127.008 152.079 127.061 152.214 127.195 152.323C127.328 152.431 127.488 152.485 127.701 152.485C127.914 152.485 128.101 152.431 128.207 152.323C128.314 152.214 128.394 152.079 128.394 151.917C128.394 151.646 128.234 151.457 127.888 151.322L127.328 151.105C126.795 150.889 126.528 150.564 126.528 150.077C126.528 149.779 126.635 149.536 126.848 149.319C127.061 149.13 127.355 149.022 127.701 149.022C128.048 149.022 128.367 149.13 128.581 149.319C128.794 149.509 128.9 149.779 128.9 150.131V150.212H128.927Z" fill="#795035"/>
<path d="M129.566 151.944V150.05H130.153V151.917C130.153 152.079 130.206 152.214 130.286 152.295C130.366 152.404 130.499 152.458 130.659 152.458C130.819 152.458 130.952 152.404 131.059 152.295C131.165 152.187 131.219 152.052 131.219 151.863V150.05H131.778V152.918H131.299L131.245 152.62C131.086 152.864 130.819 152.972 130.526 152.972C130.233 152.972 129.993 152.864 129.833 152.701C129.673 152.512 129.593 152.268 129.593 151.944" fill="#795035"/>
<path d="M133.51 150.51C133.35 150.51 133.217 150.564 133.11 150.672C133.004 150.78 132.977 150.916 132.977 151.105V151.89C132.977 152.052 133.03 152.214 133.11 152.322C133.217 152.431 133.35 152.485 133.51 152.485C133.67 152.485 133.803 152.431 133.883 152.322C133.963 152.214 134.016 152.079 134.016 151.917V151.105C134.016 150.943 133.963 150.807 133.883 150.699C133.803 150.591 133.67 150.537 133.51 150.537M132.87 150.077L132.924 150.374C133.084 150.131 133.323 150.023 133.643 150.023C133.963 150.023 134.176 150.131 134.363 150.32C134.523 150.51 134.603 150.78 134.603 151.105V151.89C134.603 152.214 134.523 152.485 134.363 152.674C134.203 152.864 133.963 152.972 133.643 152.972C133.323 152.972 133.137 152.864 132.977 152.674V154.027H132.391V150.077H132.87Z" fill="#795035"/>
<path d="M135.695 151.051V151.159H136.761V151.051C136.761 150.888 136.708 150.726 136.628 150.618C136.521 150.51 136.415 150.456 136.228 150.456C136.042 150.456 135.935 150.51 135.828 150.618C135.722 150.726 135.695 150.861 135.695 151.051ZM136.761 151.917H137.321C137.321 152.268 137.214 152.512 137.028 152.674C136.814 152.864 136.575 152.945 136.255 152.945C135.935 152.945 135.668 152.837 135.455 152.647C135.242 152.431 135.162 152.187 135.162 151.835V151.105C135.162 150.753 135.269 150.483 135.455 150.293C135.668 150.077 135.935 149.996 136.255 149.996C136.575 149.996 136.841 150.104 137.028 150.32C137.241 150.537 137.321 150.807 137.321 151.132V151.592H135.695V151.944C135.695 152.106 135.748 152.241 135.828 152.35C135.935 152.458 136.068 152.512 136.228 152.512C136.388 152.512 136.521 152.458 136.628 152.377C136.708 152.268 136.761 152.16 136.761 151.998V151.944V151.917Z" fill="#795035"/>
<path d="M138.467 152.918H137.881V150.05H138.361L138.414 150.374C138.574 150.104 138.814 149.969 139.107 149.969C139.187 149.969 139.24 149.969 139.267 149.969V150.51C139.267 150.51 139.107 150.51 139.053 150.51C138.867 150.51 138.734 150.564 138.627 150.672C138.52 150.78 138.467 150.915 138.467 151.105V152.864V152.918Z" fill="#795035"/>
<path d="M139.747 150.05H140.333V152.918H139.747V150.05ZM139.8 149.509C139.8 149.509 139.693 149.373 139.693 149.265C139.693 149.157 139.72 149.076 139.8 149.022C139.853 148.94 139.933 148.913 140.04 148.913C140.146 148.913 140.226 148.94 140.28 149.022C140.333 149.076 140.386 149.157 140.386 149.265C140.386 149.373 140.36 149.454 140.28 149.509C140.2 149.563 140.12 149.617 140.04 149.617C139.96 149.617 139.853 149.59 139.8 149.509Z" fill="#795035"/>
<path d="M141.452 151.078V151.862C141.452 152.025 141.505 152.187 141.585 152.295C141.691 152.404 141.798 152.458 141.985 152.458C142.171 152.458 142.278 152.404 142.384 152.295C142.491 152.187 142.518 152.052 142.518 151.862V151.078C142.518 150.916 142.464 150.753 142.384 150.645C142.278 150.537 142.171 150.483 141.985 150.483C141.798 150.483 141.691 150.537 141.585 150.645C141.478 150.753 141.452 150.888 141.452 151.078ZM143.104 151.132V151.835C143.104 152.187 142.997 152.458 142.784 152.674C142.571 152.864 142.304 152.972 141.985 152.972C141.665 152.972 141.372 152.864 141.185 152.674C140.972 152.458 140.865 152.187 140.865 151.835V151.132C140.865 150.78 140.972 150.51 141.185 150.293C141.398 150.104 141.665 149.996 141.985 149.996C142.304 149.996 142.598 150.104 142.784 150.293C142.997 150.51 143.104 150.78 143.104 151.132Z" fill="#795035"/>
<path d="M144.25 152.918H143.664V150.05H144.144L144.197 150.374C144.357 150.104 144.597 149.969 144.89 149.969C144.97 149.969 144.997 149.969 145.05 149.969V150.51C145.05 150.51 144.89 150.51 144.837 150.51C144.65 150.51 144.517 150.564 144.41 150.672C144.304 150.78 144.25 150.915 144.25 151.105V152.864V152.918Z" fill="#795035"/>
<path d="M148.728 149.076V151.7L147.262 149.076H146.756V152.891H147.316V150.239L148.781 152.891H149.261V149.076H148.728Z" fill="#795035"/>
<path d="M150.62 152.295C150.62 152.295 150.833 152.458 150.993 152.458C151.153 152.458 151.286 152.404 151.393 152.295C151.499 152.187 151.553 152.052 151.553 151.862V151.105C151.553 150.943 151.499 150.78 151.393 150.672C151.286 150.564 151.153 150.51 150.993 150.51C150.833 150.51 150.7 150.564 150.62 150.672C150.54 150.78 150.487 150.915 150.487 151.078V151.89C150.487 152.052 150.54 152.187 150.62 152.295ZM149.9 151.862V151.051C149.9 150.726 149.98 150.456 150.14 150.266C150.3 150.077 150.54 149.969 150.86 149.969C151.18 149.969 151.419 150.077 151.579 150.32L151.633 150.023H152.112V152.864H151.633L151.579 152.566C151.419 152.809 151.18 152.918 150.86 152.918C150.54 152.918 150.327 152.809 150.14 152.62C149.98 152.431 149.9 152.16 149.9 151.835" fill="#795035"/>
<path d="M153.099 149.292V150.077H152.619V150.564H153.099V152.891H153.685V150.564H154.192V150.077H153.685V149.292H153.099Z" fill="#795035"/>
<path d="M154.672 151.944V150.05H155.258V151.917C155.258 152.079 155.311 152.214 155.391 152.295C155.471 152.404 155.605 152.458 155.765 152.458C155.924 152.458 156.058 152.404 156.164 152.295C156.271 152.187 156.324 152.052 156.324 151.863V150.05H156.884V152.918H156.404L156.351 152.62C156.191 152.864 155.924 152.972 155.631 152.972C155.338 152.972 155.098 152.864 154.938 152.701C154.778 152.512 154.699 152.268 154.699 151.944" fill="#795035"/>
<path d="M158.082 152.918H157.496V150.05H157.976L158.029 150.374C158.189 150.104 158.429 149.969 158.722 149.969C158.802 149.969 158.829 149.969 158.882 149.969V150.51C158.882 150.51 158.722 150.51 158.669 150.51C158.482 150.51 158.349 150.564 158.242 150.672C158.136 150.78 158.082 150.915 158.082 151.105V152.864V152.918Z" fill="#795035"/>
<path d="M159.948 152.295C159.948 152.295 160.161 152.458 160.321 152.458C160.481 152.458 160.614 152.404 160.721 152.295C160.828 152.187 160.881 152.052 160.881 151.862V151.105C160.881 150.943 160.828 150.78 160.721 150.672C160.614 150.564 160.481 150.51 160.321 150.51C160.161 150.51 160.028 150.564 159.948 150.672C159.868 150.78 159.815 150.915 159.815 151.078V151.89C159.815 152.052 159.868 152.187 159.948 152.295ZM159.229 151.862V151.051C159.229 150.726 159.308 150.456 159.495 150.266C159.655 150.077 159.895 149.969 160.215 149.969C160.534 149.969 160.774 150.077 160.934 150.32L160.987 150.023H161.467V152.864H160.987L160.934 152.566C160.774 152.809 160.534 152.918 160.215 152.918C159.895 152.918 159.655 152.809 159.495 152.62C159.335 152.431 159.229 152.16 159.229 151.835" fill="#795035"/>
<path d="M162.667 148.94H162.107V152.891H162.667V148.94Z" fill="#795035"/>
<path d="M166.852 150.212H166.265V150.104C166.265 149.942 166.212 149.806 166.105 149.698C165.999 149.59 165.839 149.536 165.652 149.536C165.466 149.536 165.306 149.59 165.199 149.671C165.093 149.779 165.039 149.888 165.039 150.023C165.039 150.131 165.066 150.212 165.146 150.32C165.199 150.402 165.306 150.483 165.439 150.51L165.999 150.753C165.999 150.753 166.212 150.834 166.265 150.862C166.345 150.889 166.425 150.943 166.505 150.997C166.585 151.051 166.665 151.132 166.718 151.186C166.772 151.267 166.825 151.349 166.852 151.457C166.878 151.565 166.905 151.673 166.905 151.809C166.905 152.16 166.798 152.431 166.558 152.647C166.319 152.864 166.025 152.972 165.652 152.972C165.279 152.972 164.959 152.864 164.72 152.674C164.48 152.485 164.373 152.214 164.373 151.863V151.754H164.959V151.89C164.959 152.079 165.013 152.214 165.146 152.323C165.279 152.431 165.439 152.485 165.652 152.485C165.865 152.485 166.052 152.431 166.159 152.323C166.265 152.214 166.345 152.079 166.345 151.917C166.345 151.646 166.185 151.457 165.839 151.322L165.279 151.105C164.746 150.889 164.48 150.564 164.48 150.077C164.48 149.779 164.586 149.536 164.799 149.319C165.013 149.13 165.306 149.022 165.652 149.022C165.999 149.022 166.319 149.13 166.532 149.319C166.745 149.509 166.852 149.779 166.852 150.131V150.212Z" fill="#795035"/>
<path d="M167.811 149.292V150.077H167.305V150.564H167.811V152.891H168.371V150.564H168.877V150.077H168.371V149.292H167.811Z" fill="#795035"/>
<path d="M169.995 152.295C169.995 152.295 170.208 152.458 170.368 152.458C170.528 152.458 170.661 152.404 170.768 152.295C170.874 152.187 170.928 152.052 170.928 151.862V151.105C170.928 150.943 170.874 150.78 170.768 150.672C170.661 150.564 170.528 150.51 170.368 150.51C170.208 150.51 170.075 150.564 169.995 150.672C169.915 150.78 169.862 150.915 169.862 151.078V151.89C169.862 152.052 169.915 152.187 169.995 152.295ZM169.275 151.862V151.051C169.275 150.726 169.355 150.456 169.542 150.266C169.702 150.077 169.942 149.969 170.261 149.969C170.581 149.969 170.821 150.077 170.981 150.32L171.034 150.023H171.514V152.864H171.034L170.981 152.566C170.821 152.809 170.581 152.918 170.261 152.918C169.942 152.918 169.728 152.809 169.542 152.62C169.382 152.431 169.275 152.16 169.275 151.835" fill="#795035"/>
<path d="M172.741 152.918H172.154V150.05H172.634L172.687 150.347C172.874 150.104 173.114 149.996 173.434 149.996C173.753 149.996 173.967 150.104 174.126 150.293C174.286 150.483 174.366 150.726 174.366 151.051V152.918H173.807V151.078C173.807 150.916 173.753 150.78 173.673 150.672C173.593 150.564 173.46 150.51 173.274 150.51C173.087 150.51 172.98 150.564 172.874 150.672C172.767 150.78 172.714 150.916 172.714 151.105V152.918H172.741Z" fill="#795035"/>
<path d="M175.673 152.295C175.673 152.295 175.886 152.458 176.046 152.458C176.206 152.458 176.339 152.404 176.446 152.295C176.552 152.187 176.605 152.052 176.605 151.863V151.105C176.605 150.943 176.552 150.78 176.446 150.672C176.339 150.564 176.206 150.51 176.046 150.51C175.886 150.51 175.753 150.564 175.673 150.672C175.593 150.78 175.539 150.916 175.539 151.078V151.917C175.539 152.079 175.593 152.214 175.673 152.322M176.712 152.918L176.659 152.62C176.499 152.864 176.259 152.972 175.939 152.972C175.619 152.972 175.38 152.864 175.22 152.674C175.06 152.485 174.953 152.214 174.953 151.89V151.078C174.953 150.753 175.033 150.483 175.22 150.293C175.38 150.104 175.619 149.996 175.939 149.996C176.232 149.996 176.446 150.104 176.605 150.293V148.94H177.165V152.891H176.685L176.712 152.918Z" fill="#795035"/>
<path d="M178.47 152.295C178.47 152.295 178.683 152.458 178.843 152.458C179.003 152.458 179.136 152.404 179.242 152.295C179.349 152.187 179.402 152.052 179.402 151.862V151.105C179.402 150.943 179.349 150.78 179.242 150.672C179.136 150.564 179.003 150.51 178.843 150.51C178.683 150.51 178.55 150.564 178.47 150.672C178.39 150.78 178.336 150.915 178.336 151.078V151.89C178.336 152.052 178.39 152.187 178.47 152.295ZM177.75 151.862V151.051C177.75 150.726 177.83 150.456 177.99 150.266C178.15 150.077 178.39 149.969 178.709 149.969C179.029 149.969 179.269 150.077 179.429 150.32L179.482 150.023H179.962V152.864H179.482L179.429 152.566C179.269 152.809 179.029 152.918 178.709 152.918C178.39 152.918 178.15 152.809 177.99 152.62C177.83 152.431 177.75 152.16 177.75 151.835" fill="#795035"/>
<path d="M181.19 152.918H180.604V150.05H181.083L181.137 150.374C181.296 150.104 181.536 149.969 181.829 149.969C181.909 149.969 181.936 149.969 181.989 149.969V150.51C181.989 150.51 181.829 150.51 181.776 150.51C181.59 150.51 181.456 150.564 181.35 150.672C181.243 150.78 181.19 150.915 181.19 151.105V152.864V152.918Z" fill="#795035"/>
<path d="M183.028 152.295C183.028 152.295 183.241 152.458 183.401 152.458C183.561 152.458 183.694 152.404 183.801 152.295C183.908 152.187 183.961 152.052 183.961 151.863V151.105C183.961 150.943 183.908 150.78 183.801 150.672C183.694 150.564 183.561 150.51 183.401 150.51C183.241 150.51 183.108 150.564 183.028 150.672C182.948 150.78 182.895 150.916 182.895 151.078V151.917C182.895 152.079 182.948 152.214 183.028 152.322M184.068 152.918L184.014 152.62C183.854 152.864 183.614 152.972 183.295 152.972C182.975 152.972 182.735 152.864 182.575 152.674C182.415 152.485 182.309 152.214 182.309 151.89V151.078C182.309 150.753 182.389 150.483 182.575 150.293C182.735 150.104 182.975 149.996 183.295 149.996C183.588 149.996 183.801 150.104 183.961 150.293V148.94H184.521V152.891H184.041L184.068 152.918Z" fill="#795035"/>
</g>
<path d="M184.44 51.9607C183.84 52.1442 180.62 53.0283 177.201 53.0283C169.578 53.0283 165.508 49.7588 165.508 42.8029V0.967529H169.795C174.248 0.967529 175.716 3.56973 175.716 7.18946V10.3588H184.457V12.8276C184.457 16.3139 182.038 18.2989 178.435 18.2989H175.716V41.0014C175.716 43.4869 176.567 45.255 180.07 45.255C182.172 45.255 184.107 44.6712 184.457 44.5711V51.9607M157.951 17.1479C160.12 17.1479 162.355 17.7818 162.622 17.8652V10.3588C162.255 10.2921 158.068 9.37465 154.098 9.37465C147.376 9.37465 142.605 12.1603 142.605 19.4332V52.0107H152.797V21.4682C152.797 18.7659 154.515 17.1312 157.935 17.1312M99.4351 21.168C99.4351 16.9811 97.0664 9.39133 83.4382 9.39133C76.4489 9.39133 73.6466 11.2429 72.6457 11.9101C71.6115 11.3263 68.3588 9.39133 61.8532 9.39133C49.2592 9.39133 45.873 15.68 45.873 20.8677V52.0107H56.1484V21.5516C56.1484 19.7835 57.1493 17.1145 61.8532 17.1145C65.5063 17.1145 67.508 18.9661 67.508 21.5516V52.0107H77.7834V21.5516C77.7834 18.9995 79.7184 17.1145 83.4382 17.1145C87.4583 17.1145 89.1597 19.183 89.1597 21.5516V45.0215C89.1597 49.6254 91.8286 52.2109 96.0822 52.2109H99.4351V21.1846M121.153 9.39133C134.014 9.39133 138.668 15.4798 138.668 23.5867V36.7812C138.668 46.039 132.73 53.0283 120.436 53.0283C108.142 53.0283 102.237 47.4902 102.237 40.0506C102.237 34.1123 106.274 30.1923 115.048 27.7902C116.316 27.4399 120.586 26.1555 122.538 25.6051C126.975 24.304 128.393 23.2864 128.393 21.3848C128.393 19.3664 125.924 17.1646 120.92 17.1646C114.932 17.1646 113.047 20.851 113.013 23.5366H103.689C103.689 15.2963 108.593 9.42469 121.17 9.42469M119.635 45.3051C123.589 45.3051 128.41 42.8029 128.41 36.4476V31.4433C128.41 31.4433 120.636 33.6786 118.451 34.3458C114.565 35.5134 112.696 37.4985 112.696 40.084C112.696 42.6695 114.831 45.2884 119.635 45.2884" fill="#4E5059"/>
<path d="M20.3672 52.778C6.20525 52.778 0 44.0873 0 33.0947V21.218C0 5.95504 10.192 0 22.1187 0C36.5476 0 42.8363 7.83997 42.8363 15.6966C42.8363 27.1563 31.1264 29.9587 25.9553 31.46C24.4707 31.8937 18.9827 33.5284 17.7317 33.8954C12.8942 35.2799 11.5097 36.8479 11.5097 38.6327C11.5097 41.6686 14.162 44.3042 20.3506 44.3042C25.7551 44.3042 29.7085 42.4693 30.359 36.8312H41.6352C40.4676 45.7387 35.1131 52.778 20.3506 52.778M21.6183 8.5072C15.3463 8.5072 11.2429 12.6941 11.2429 19.8501V27.3398C11.2429 27.3398 19.7167 24.8544 23.2697 23.7868C26.2389 22.886 31.5434 21.0011 31.5434 16.3138C31.5434 12.2437 28.2406 8.49052 21.6016 8.49052" fill="#FAC109"/>
<path d="M8.32461 88.3581C9.30878 89.3256 10.7433 89.8094 12.6116 89.8094C13.946 89.8094 15.1137 89.4591 16.0645 88.7918C17.032 88.1246 17.6158 87.4073 17.8327 86.6734H23.6709C22.7368 89.5758 21.3023 91.6276 19.3673 92.8953C17.449 94.1297 15.097 94.7636 12.3614 94.7636C10.4764 94.7636 8.75831 94.4633 7.22368 93.8461C5.68905 93.2456 4.40463 92.3782 3.33705 91.2606C2.26948 90.143 1.46881 88.8085 0.884979 87.2572C0.301151 85.6892 0.0175781 83.9711 0.0175781 82.1028C0.0175781 80.2346 0.317832 78.6166 0.918341 77.0486C1.50217 75.4973 2.35289 74.1461 3.43714 73.0118C4.53807 71.8608 5.83917 70.9768 7.34044 70.3262C8.84171 69.659 10.5265 69.342 12.3614 69.342C14.4298 69.342 16.2146 69.7257 17.7326 70.5431C19.2505 71.3271 20.5183 72.3946 21.5024 73.7458C22.4866 75.0802 23.1872 76.6149 23.6209 78.3163C24.0546 80.0344 24.2214 81.8193 24.088 83.6875H6.67321C6.7733 85.8393 7.32376 87.3907 8.32461 88.3748M15.831 75.6641C15.0303 74.7967 13.8293 74.363 12.2112 74.363C11.1437 74.363 10.2763 74.5464 9.55899 74.8967C8.8584 75.247 8.30793 75.7141 7.89091 76.2145C7.47389 76.7483 7.17364 77.3155 7.00683 77.916C6.84002 78.4998 6.73994 79.0169 6.68989 79.484H17.4824C17.1654 77.7992 16.615 76.5315 15.831 75.6474" fill="#FAC109"/>
<path d="M38.8351 93.9128L47.0087 69.759H40.4198L35.3155 86.2563H35.2321L30.1278 69.759H23.1719L31.4455 93.9128H38.8351Z" fill="#FAC109"/>
<path d="M54.0627 88.1243C55.0636 89.0917 56.4815 89.5755 58.3664 89.5755C59.7008 89.5755 60.8518 89.2419 61.8193 88.5746C62.7701 87.9074 63.3873 87.1901 63.5875 86.4562H69.4257C68.4916 89.342 67.0571 91.4104 65.1388 92.6614C63.1871 93.9125 60.8685 94.5297 58.1328 94.5297C56.2146 94.5297 54.5131 94.2127 52.9785 93.6122C51.4605 92.995 50.1594 92.1443 49.1085 91.0267C48.041 89.9091 47.2236 88.558 46.6398 87.0066C46.0726 85.4386 45.7891 83.7372 45.7891 81.869C45.7891 80.0007 46.0726 78.366 46.6731 76.8147C47.2737 75.2634 48.1077 73.9122 49.1919 72.7779C50.2762 71.6436 51.5773 70.7429 53.0952 70.0923C54.6132 69.4251 56.2813 69.1082 58.1328 69.1082C60.1846 69.1082 61.9694 69.5085 63.5041 70.2925C65.0387 71.0932 66.2898 72.1607 67.2739 73.4952C68.2414 74.8297 68.9587 76.3643 69.3924 78.0824C69.8261 79.7839 69.9762 81.5854 69.8594 83.437H52.428C52.5114 85.5888 53.0619 87.1568 54.0627 88.1243ZM61.5691 75.4135C60.7684 74.5461 59.5674 74.1124 57.9494 74.1124C56.8818 74.1124 55.9977 74.2959 55.3138 74.6462C54.6132 75.0132 54.0294 75.4469 53.629 75.9806C53.212 76.5144 52.9284 77.0649 52.745 77.6654C52.5615 78.2659 52.4614 78.7997 52.4447 79.2668H63.2372C62.9202 77.582 62.3698 76.3143 61.5691 75.4302" fill="#FAC109"/>
<path d="M78.2164 69.7587V74.2458H78.2998C78.6167 73.4952 79.0338 72.8113 79.5675 72.1607C80.1013 71.5269 80.7018 70.9764 81.3857 70.526C82.0697 70.0756 82.8036 69.7253 83.5876 69.4751C84.3716 69.2249 85.1723 69.1082 86.023 69.1082C86.4567 69.1082 86.9404 69.1916 87.4742 69.3417V75.4969C87.174 75.4469 86.7903 75.3801 86.3566 75.3301C85.9396 75.28 85.5226 75.2634 85.1056 75.2634C83.8879 75.2634 82.8537 75.4635 82.0196 75.8806C81.1856 76.2809 80.5017 76.8314 79.9846 77.532C79.4675 78.2325 79.1172 79.0332 78.9003 79.984C78.6835 80.9182 78.5667 81.919 78.5667 83.0366V93.9125H71.9277V69.7587H78.2331H78.2164Z" fill="#FAC109"/>
<path d="M99.9353 101.119C98.6508 101.953 96.8827 102.37 94.6141 102.37C93.9302 102.37 93.2629 102.353 92.579 102.303C91.9118 102.253 91.2446 102.203 90.544 102.137V96.6652C91.1778 96.7153 91.8117 96.7987 92.4623 96.832C93.1295 96.8988 93.7634 96.9154 94.4306 96.8988C95.298 96.7987 95.9486 96.465 96.3656 95.8812C96.7826 95.2807 96.9994 94.6302 96.9994 93.9129C96.9994 93.3791 96.916 92.8787 96.7326 92.4116L88.2754 69.7424H95.3147L100.786 86.2898H100.886L106.157 69.7424H113.03L102.954 96.8988C102.221 98.8504 101.236 100.268 99.9519 101.102" fill="#FAC109"/>
<path d="M129.61 90.8269C128.842 92.128 127.825 93.0788 126.557 93.6626C125.289 94.2298 123.855 94.53 122.27 94.53C120.469 94.53 118.884 94.1797 117.516 93.4791C116.148 92.7786 115.014 91.8278 114.113 90.6267C113.229 89.4257 112.562 88.0412 112.112 86.4899C111.661 84.9386 111.428 83.3039 111.428 81.6358C111.428 79.9677 111.661 78.4498 112.112 76.9485C112.562 75.4305 113.229 74.0961 114.113 72.9451C115.014 71.7941 116.115 70.86 117.466 70.1594C118.801 69.4588 120.352 69.1085 122.12 69.1085C123.555 69.1085 124.922 69.4088 126.207 70.026C127.508 70.6265 128.509 71.5272 129.276 72.7116H129.36V60.5513H135.999V93.9128H129.693V90.8269M129.326 78.8835C129.143 77.966 128.826 77.1653 128.375 76.4647C127.925 75.7641 127.341 75.1803 126.624 74.7466C125.907 74.3129 125.006 74.0961 123.922 74.0961C122.837 74.0961 121.903 74.2962 121.169 74.7466C120.419 75.1803 119.835 75.7641 119.368 76.4814C118.917 77.1987 118.6 78.0161 118.384 78.9335C118.183 79.8509 118.083 80.8017 118.083 81.8193C118.083 82.7534 118.2 83.6875 118.417 84.6216C118.651 85.5558 118.984 86.3731 119.468 87.1238C119.952 87.841 120.552 88.4415 121.286 88.8919C122.02 89.3423 122.904 89.5758 123.922 89.5758C125.006 89.5758 125.923 89.3423 126.657 88.9253C127.391 88.4916 127.975 87.9078 128.409 87.1738C128.842 86.4398 129.159 85.6058 129.343 84.6717C129.526 83.7376 129.626 82.7701 129.626 81.7859C129.626 80.8017 129.543 79.8343 129.343 78.9001" fill="#FAC109"/>
<path d="M140.019 73.3117C140.703 72.2942 141.587 71.4601 142.638 70.843C143.689 70.2091 144.89 69.7754 146.207 69.5085C147.542 69.2416 148.876 69.1082 150.211 69.1082C151.428 69.1082 152.646 69.2082 153.897 69.375C155.148 69.5585 156.283 69.8755 157.317 70.3759C158.351 70.8763 159.185 71.5769 159.836 72.461C160.503 73.3618 160.82 74.5294 160.82 75.9806V88.558C160.82 89.6422 160.886 90.6931 161.003 91.6773C161.137 92.6781 161.354 93.4287 161.67 93.9292H154.931C154.798 93.5455 154.698 93.1785 154.631 92.7782C154.548 92.3945 154.498 91.9942 154.464 91.5939C153.397 92.6781 152.162 93.4454 150.728 93.8791C149.293 94.3128 147.825 94.5297 146.341 94.5297C145.19 94.5297 144.106 94.3795 143.121 94.1127C142.121 93.8291 141.253 93.3954 140.503 92.8116C139.752 92.211 139.168 91.4604 138.751 90.5597C138.334 89.6589 138.117 88.5746 138.117 87.3236C138.117 85.9557 138.351 84.8215 138.851 83.9374C139.335 83.0533 139.952 82.336 140.719 81.8189C141.487 81.2851 142.354 80.8848 143.338 80.6179C144.322 80.351 145.307 80.1508 146.307 79.984C147.308 79.8339 148.276 79.7005 149.26 79.6171C150.227 79.5336 151.078 79.3668 151.829 79.1834C152.579 78.9999 153.163 78.7163 153.597 78.366C154.047 77.999 154.231 77.4819 154.214 76.798C154.214 76.0807 154.097 75.5136 153.864 75.0966C153.63 74.6795 153.313 74.3459 152.93 74.1291C152.529 73.8789 152.096 73.7287 151.579 73.662C151.061 73.5786 150.494 73.5286 149.911 73.5286C148.593 73.5286 147.575 73.8121 146.825 74.3793C146.074 74.9464 145.64 75.8806 145.507 77.1817H138.868C138.968 75.6137 139.352 74.3292 140.035 73.295M153.147 82.6696C152.73 82.8031 152.279 82.9198 151.795 83.0199C151.312 83.1033 150.811 83.1867 150.277 83.2368C149.744 83.3035 149.227 83.3869 148.693 83.4703C148.192 83.5704 147.709 83.7038 147.225 83.854C146.741 84.0041 146.307 84.221 145.974 84.4878C145.607 84.7547 145.323 85.0883 145.106 85.4887C144.89 85.889 144.773 86.4061 144.773 87.04C144.773 87.6238 144.873 88.1243 145.106 88.5413C145.323 88.9416 145.607 89.2585 145.991 89.4921C146.374 89.7256 146.808 89.8924 147.308 89.9758C147.809 90.0759 148.326 90.1259 148.843 90.1259C150.144 90.1259 151.162 89.9091 151.879 89.4754C152.596 89.0417 153.13 88.5079 153.464 87.8907C153.814 87.2735 154.031 86.6897 154.097 86.0558C154.164 85.4386 154.214 84.9382 154.214 84.5546V82.0858C153.931 82.336 153.597 82.5195 153.163 82.6696" fill="#FAC109"/>
<path d="M173.015 101.119C171.731 101.953 169.963 102.37 167.694 102.37C167.01 102.37 166.326 102.353 165.659 102.303C164.992 102.253 164.308 102.203 163.624 102.137V96.6652C164.258 96.7153 164.892 96.7987 165.542 96.832C166.193 96.8988 166.86 96.9154 167.511 96.8988C168.395 96.7987 169.029 96.465 169.462 95.8812C169.879 95.2807 170.08 94.6302 170.08 93.9129C170.08 93.3791 169.996 92.8787 169.796 92.4116L161.355 69.7424H168.411L173.883 86.2898H173.983L179.271 69.7424H186.143L176.051 96.8988C175.334 98.8504 174.35 100.268 173.065 101.102" fill="#FAC109"/>
<path d="M144.157 57.9656C140.871 57.9656 138.719 60.1674 138.719 63.9039V67.8406C138.719 67.8406 143.173 66.5562 145.024 65.989C146.575 65.5053 149.361 64.5211 149.361 62.069C149.361 59.9339 147.626 57.9656 144.157 57.9656Z" fill="#BCC500"/>
<defs>
<clipPath id="clip0_145_3502">
<rect width="65" height="25" fill="white" transform="translate(0 129)"/>
</clipPath>
<clipPath id="clip1_145_3502">
<rect width="90" height="25" fill="white" transform="translate(95 129)"/>
</clipPath>
</defs>
</svg>
