<svg width="138" height="42" viewBox="0 0 138 42" fill="none" xmlns="http://www.w3.org/2000/svg">
<path d="M60.5625 16.51C60.3618 16.5713 59.3164 16.8473 58.1864 16.8473C55.6837 16.8473 54.3531 15.8046 54.3531 13.5965V0.306687H55.7576C57.2254 0.306687 57.7007 1.13474 57.7007 2.27971V3.29177H60.573V4.07894C60.573 5.18301 59.781 5.81683 58.5983 5.81683H57.7112V13.0342C57.7112 13.8214 57.9858 14.3836 59.1474 14.3836C59.8338 14.3836 60.4674 14.1996 60.5836 14.1689V16.5202M51.882 5.44881C52.5895 5.44881 53.3288 5.65326 53.4132 5.68393V3.29177C53.2971 3.27133 51.9243 2.98509 50.6148 2.98509C48.4077 2.98509 46.8448 3.87448 46.8448 6.18486V16.5304H50.1924V6.8289C50.1924 5.97017 50.7521 5.44881 51.882 5.44881ZM32.6731 6.73689C32.6731 5.40792 31.8916 2.99531 27.4247 2.99531C25.1332 2.99531 24.2144 3.57802 23.8765 3.7927C23.5386 3.60868 22.472 2.99531 20.3283 2.99531C16.1993 2.99531 15.0799 4.98878 15.0799 6.64489V16.5407H18.4591V6.84934C18.4591 6.28708 18.7865 5.43858 20.3283 5.43858C21.5321 5.43858 22.1869 6.03151 22.1869 6.84934V16.5304H25.5556V6.84934C25.5556 6.03151 26.1892 5.43858 27.4141 5.43858C28.7342 5.43858 29.2939 6.09285 29.2939 6.84934V14.3121C29.2939 15.7739 30.1703 16.602 31.5643 16.602H32.6625V6.73689M39.7906 2.98509C44.0147 2.98509 45.5459 4.91722 45.5459 7.49339V11.6848C45.5459 14.629 43.5923 16.8473 39.5583 16.8473C35.5243 16.8473 33.5813 15.089 33.5813 12.7173C33.5813 10.8261 34.9013 9.57886 37.7842 8.81214C38.2066 8.69969 39.6006 8.29077 40.2447 8.11698C41.702 7.70807 42.1667 7.38094 42.1667 6.77778C42.1667 6.13374 41.3535 5.43858 39.7167 5.43858C37.7525 5.43858 37.1295 6.61422 37.1189 7.46272H34.0565C34.0565 4.84566 35.6722 2.97486 39.7906 2.97486M39.2838 14.3734C40.5827 14.3734 42.1667 13.576 42.1667 11.5621V9.97755C42.1667 9.97755 39.6111 10.6829 38.893 10.8976C37.6153 11.2759 37.0028 11.8995 37.0028 12.7275C37.0028 13.5556 37.6997 14.3836 39.2732 14.3836" fill="#4E5059"/>
<path d="M6.69513 16.7758C2.03811 16.7758 0 14.0156 0 10.5194V6.74712C0 1.89124 3.34757 0 7.26538 0C11.9963 0 14.0661 2.49439 14.0661 4.98878C14.0661 8.62813 10.2222 9.52774 8.52204 9.998C8.03627 10.1309 6.23049 10.6523 5.81864 10.7647C4.23462 11.2043 3.78053 11.7052 3.78053 12.2675C3.78053 13.2284 4.64647 14.0667 6.68457 14.0667C8.45868 14.0667 9.74702 13.484 9.96878 11.695H13.6754C13.2952 14.5267 11.5317 16.7656 6.68457 16.7656M7.10698 2.69885C5.04775 2.69885 3.69605 4.02782 3.69605 6.30753V8.68947C3.69605 8.68947 6.48393 7.9023 7.64555 7.56495C8.61708 7.27871 10.3595 6.68578 10.3595 5.19323C10.3595 3.89493 9.27181 2.70907 7.09642 2.70907" fill="#FAC109"/>
<path d="M66.983 14.0872C67.3843 14.4654 67.9545 14.6494 68.7043 14.6494C69.2429 14.6494 69.697 14.5165 70.0877 14.2609C70.4679 14.0054 70.7108 13.7294 70.7952 13.4431H73.129C72.7594 14.5676 72.1892 15.365 71.4077 15.8455C70.6368 16.326 69.7075 16.5713 68.6093 16.5713C67.849 16.5713 67.1625 16.4487 66.5606 16.2237C65.9481 15.9886 65.4307 15.6513 65.0083 15.2219C64.5859 14.7925 64.2585 14.2712 64.0262 13.668C63.7939 13.0649 63.6777 12.4004 63.6777 11.6848C63.6777 10.9692 63.7939 10.3354 64.0367 9.7322C64.2691 9.12905 64.607 8.60768 65.04 8.1681C65.4729 7.72851 66.0009 7.38094 66.6029 7.12536C67.2048 6.86979 67.8701 6.74712 68.6093 6.74712C69.433 6.74712 70.1405 6.90046 70.753 7.20715C71.3655 7.51383 71.8618 7.93297 72.2525 8.44412C72.6433 8.96549 72.9284 9.54819 73.0973 10.2127C73.2663 10.8772 73.3297 11.5621 73.2874 12.2879H66.3283C66.3705 13.116 66.5817 13.7191 66.983 14.0974M69.9821 9.18017C69.6653 8.84281 69.1795 8.66902 68.5354 8.66902C68.113 8.66902 67.7645 8.74058 67.4793 8.87348C67.1942 9.0166 66.9725 9.18017 66.8035 9.38463C66.6345 9.58908 66.5184 9.80376 66.455 10.0389C66.3811 10.2638 66.3494 10.4683 66.3283 10.6523H70.6368C70.5101 9.998 70.2883 9.5073 69.9821 9.16994" fill="#FAC109"/>
<path d="M79.1694 16.234L82.4325 6.89024H79.803L77.7649 13.2693H77.7333L75.6951 6.89024H72.9073L76.2126 16.234H79.1694Z" fill="#FAC109"/>
<path d="M85.2521 13.9952C85.6534 14.3632 86.2236 14.5574 86.9734 14.5574C87.5014 14.5574 87.966 14.4245 88.3568 14.1689C88.7369 13.9134 88.9798 13.6374 89.0643 13.3511H91.3981C91.0285 14.4756 90.4477 15.273 89.6768 15.7535C88.9059 16.234 87.9766 16.4793 86.8783 16.4793C86.118 16.4793 85.4316 16.3566 84.8297 16.1215C84.2172 15.8864 83.6997 15.549 83.2773 15.1197C82.8549 14.6903 82.5276 14.1689 82.2952 13.5658C82.0629 12.9626 81.9573 12.2982 81.9573 11.5826C81.9573 10.8669 82.0735 10.2331 82.3164 9.62998C82.5487 9.02682 82.8866 8.50546 83.3196 8.06587C83.7525 7.62629 84.2805 7.27871 84.8719 7.02313C85.4738 6.76756 86.1497 6.64489 86.8783 6.64489C87.702 6.64489 88.4201 6.79823 89.0221 7.10492C89.6345 7.41161 90.1309 7.82052 90.5216 8.34189C90.9123 8.86326 91.1974 9.44596 91.377 10.1105C91.5459 10.7749 91.6199 11.4701 91.5671 12.1857H84.6079C84.6502 13.0138 84.8614 13.6169 85.2626 13.9952M88.2617 9.07794C87.9449 8.74058 87.4592 8.57702 86.815 8.57702C86.3926 8.57702 86.0441 8.64858 85.759 8.78147C85.4738 8.92459 85.2521 9.09838 85.0831 9.29262C84.9142 9.49708 84.798 9.71176 84.7346 9.94688C84.6607 10.182 84.629 10.3865 84.6079 10.5603H88.9164C88.7897 9.90599 88.568 9.41529 88.2512 9.07794" fill="#FAC109"/>
<path d="M94.9041 6.89024V8.62813H94.9463C95.073 8.34189 95.242 8.07609 95.4532 7.82052C95.6644 7.57517 95.9073 7.36049 96.1818 7.1867C96.4564 7.01291 96.7521 6.88001 97.0583 6.77778C97.3646 6.68578 97.6919 6.63466 98.0299 6.63466C98.1988 6.63466 98.3995 6.66533 98.6107 6.72667V9.10861C98.4839 9.08816 98.3361 9.06771 98.1566 9.04727C97.9876 9.02682 97.8081 9.0166 97.6497 9.0166C97.1639 9.0166 96.7521 9.09838 96.4142 9.25173C96.0762 9.40507 95.8122 9.61975 95.601 9.89577C95.3898 10.1718 95.2525 10.4887 95.1575 10.8465C95.073 11.2043 95.0308 11.5928 95.0308 12.0221V16.234H92.3802V6.89024H94.9041Z" fill="#FAC109"/>
<path d="M103.584 19.0146C103.067 19.3417 102.37 19.5053 101.451 19.5053C101.177 19.5053 100.902 19.5053 100.638 19.4746C100.374 19.4542 100.1 19.4337 99.8251 19.4133V17.2972C100.068 17.3176 100.332 17.3483 100.585 17.3687C100.849 17.3892 101.103 17.3994 101.367 17.3892C101.715 17.3483 101.969 17.2256 102.138 16.9905C102.307 16.7656 102.391 16.51 102.391 16.234C102.391 16.0295 102.349 15.8353 102.286 15.6615L98.9063 6.90046H101.726L103.912 13.3H103.954L106.066 6.90046H108.812L104.778 17.3994C104.493 18.1559 104.091 18.6977 103.584 19.0248" fill="#FAC109"/>
<path d="M115.433 15.0379C115.116 15.549 114.715 15.9068 114.208 16.1317C113.701 16.3566 113.131 16.4691 112.497 16.4691C111.779 16.4691 111.146 16.3362 110.596 16.0602C110.047 15.7842 109.604 15.4264 109.245 14.9561C108.886 14.4961 108.622 13.9645 108.442 13.3613C108.263 12.7582 108.178 12.1346 108.178 11.4803C108.178 10.8261 108.273 10.2536 108.442 9.67087C108.622 9.08816 108.896 8.56679 109.245 8.12721C109.593 7.6774 110.047 7.3196 110.575 7.0538C111.114 6.78801 111.726 6.64489 112.444 6.64489C113.015 6.64489 113.564 6.75734 114.081 6.99247C114.599 7.22759 115 7.57517 115.306 8.0352H115.349V3.33267H117.999V16.234H115.486V15.0379M115.338 10.4171C115.264 10.0593 115.137 9.75265 114.958 9.47663C114.778 9.20061 114.546 8.98593 114.261 8.81214C113.976 8.63835 113.617 8.55657 113.173 8.55657C112.73 8.55657 112.371 8.63835 112.075 8.81214C111.779 8.97571 111.536 9.20061 111.357 9.47663C111.177 9.75265 111.051 10.0696 110.955 10.4274C110.871 10.7852 110.839 11.1532 110.839 11.5417C110.839 11.8995 110.882 12.2675 110.966 12.6253C111.051 12.9831 111.188 13.3102 111.388 13.5965C111.579 13.8827 111.821 14.1076 112.117 14.2814C112.413 14.4552 112.761 14.5472 113.173 14.5472C113.606 14.5472 113.976 14.4654 114.271 14.2916C114.567 14.1281 114.799 13.9031 114.968 13.6169C115.137 13.3307 115.264 13.0138 115.338 12.6457C115.412 12.2879 115.454 11.9097 115.454 11.5314C115.454 11.1532 115.412 10.7749 115.338 10.4171Z" fill="#FAC109"/>
<path d="M119.604 8.27033C119.879 7.87164 120.227 7.55473 120.65 7.30938C121.072 7.06403 121.547 6.90046 122.075 6.79823C122.603 6.696 123.131 6.64489 123.67 6.64489C124.156 6.64489 124.652 6.67556 125.148 6.74712C125.645 6.80845 126.099 6.94135 126.511 7.13559C126.922 7.32982 127.26 7.59562 127.524 7.9432C127.788 8.29078 127.915 8.74058 127.915 9.30284V14.1587C127.915 14.5779 127.936 14.9868 127.989 15.365C128.042 15.7535 128.126 16.0397 128.253 16.234H125.571C125.518 16.0909 125.486 15.9375 125.444 15.7944C125.412 15.641 125.391 15.4877 125.381 15.3344C124.958 15.7535 124.462 16.05 123.892 16.2237C123.321 16.3873 122.73 16.4793 122.139 16.4793C121.674 16.4793 121.252 16.4282 120.85 16.3158C120.449 16.2033 120.101 16.0397 119.805 15.8148C119.509 15.5899 119.266 15.2935 119.108 14.9459C118.939 14.5983 118.854 14.1792 118.854 13.6987C118.854 13.1671 118.95 12.7275 119.14 12.3902C119.34 12.0528 119.583 11.7768 119.889 11.5723C120.196 11.3679 120.544 11.2145 120.935 11.1123C121.326 11.0101 121.716 10.9283 122.118 10.8669C122.519 10.8056 122.91 10.7647 123.3 10.7238C123.68 10.6829 124.029 10.6318 124.325 10.5603C124.62 10.4887 124.863 10.3865 125.032 10.2433C125.201 10.1002 125.286 9.90599 125.275 9.6402C125.275 9.36418 125.233 9.13928 125.138 8.97571C125.043 8.81214 124.916 8.68947 124.768 8.59746C124.61 8.50546 124.43 8.44412 124.23 8.41345C124.029 8.38278 123.807 8.37256 123.564 8.37256C123.047 8.37256 122.624 8.48501 122.329 8.69969C122.033 8.91437 121.854 9.27217 121.801 9.78332H119.15C119.192 9.18017 119.34 8.67924 119.615 8.29077M124.853 11.9097C124.684 11.9608 124.504 12.0119 124.314 12.0426C124.113 12.0835 123.913 12.1039 123.712 12.1346C123.501 12.155 123.29 12.1857 123.079 12.2266C122.878 12.2675 122.677 12.3084 122.487 12.3697C122.297 12.4311 122.128 12.5128 121.98 12.6151C121.843 12.7173 121.716 12.84 121.632 13.0035C121.547 13.1671 121.505 13.3613 121.505 13.5965C121.505 13.8316 121.547 14.0156 121.632 14.1792C121.716 14.3325 121.832 14.4654 121.991 14.5472C122.139 14.6392 122.318 14.7005 122.519 14.7312C122.719 14.7721 122.92 14.7823 123.131 14.7823C123.659 14.7823 124.061 14.7005 124.346 14.5267C124.631 14.3632 124.842 14.1587 124.979 13.9236C125.117 13.6885 125.201 13.4533 125.233 13.208C125.264 12.9626 125.275 12.7684 125.275 12.6253V11.6643C125.159 11.7563 125.022 11.8381 124.853 11.8892" fill="#FAC109"/>
<path d="M132.783 19.0146C132.276 19.3417 131.558 19.5053 130.65 19.5053C130.376 19.5053 130.101 19.5053 129.837 19.4746C129.573 19.4542 129.298 19.4337 129.024 19.4133V17.2972C129.267 17.3176 129.531 17.3483 129.784 17.3687C130.048 17.3892 130.312 17.3994 130.566 17.3892C130.914 17.3483 131.168 17.2256 131.337 16.9905C131.506 16.7656 131.59 16.51 131.59 16.234C131.59 16.0295 131.548 15.8353 131.474 15.6615L128.095 6.90046H130.914L133.1 13.3H133.142L135.254 6.90046H138L133.966 17.3994C133.681 18.1559 133.28 18.6977 132.773 19.0248" fill="#FAC109"/>
<path d="M121.252 2.33082C119.942 2.33082 119.076 3.17932 119.076 4.63098V6.15419C119.076 6.15419 120.861 5.65327 121.6 5.43858C122.223 5.25457 123.332 4.87632 123.332 3.92559C123.332 3.09754 122.635 2.34104 121.252 2.34104" fill="#BCC500"/>
<g clip-path="url(#clip0_133_3425)">
<path d="M20.359 41C16.6285 41 15 38.7236 15 35.839V32.7269C15 28.7211 17.6778 27.1616 20.8189 27.1616C24.6108 27.1616 26.27 29.2206 26.27 31.2795C26.27 34.2829 23.1867 35.0202 21.8274 35.4143C21.4356 35.5265 19.9911 35.9546 19.6674 36.0497C18.3967 36.4166 18.0321 36.8277 18.0321 37.2932C18.0321 38.0882 18.7271 38.7779 20.359 38.7779C21.7797 38.7779 22.8154 38.2955 22.9891 36.8175H25.9565C25.6533 39.1551 24.2395 41 20.359 41V41ZM20.6929 29.3904C19.044 29.3904 17.964 30.4912 17.964 32.3667V34.3339C17.964 34.3339 20.1955 33.685 21.1256 33.403C21.9057 33.1685 23.3026 32.6725 23.3026 31.446C23.3026 30.3757 22.4338 29.3938 20.6929 29.3938" fill="#FFB71B"/>
<path d="M27.5305 40.3476C27.4249 39.9127 27.4453 39.2162 27.585 38.2547C27.7962 36.8379 28.2017 35.4925 28.8013 34.2184C28.9478 33.9024 29.1488 33.6714 29.4009 33.5253C29.653 33.3792 29.9869 33.3044 30.3991 33.3044C30.6239 33.3044 30.7738 33.3316 30.8556 33.386C30.9374 33.4403 30.9646 33.5457 30.9408 33.6951C30.9135 33.8684 30.767 34.2625 30.5047 34.8707C30.3241 35.3056 30.1776 35.6861 30.0618 36.0055C29.946 36.3283 29.8267 36.7258 29.7109 37.2048C30.1402 36.3554 30.6103 35.6352 31.1213 35.0474C31.6324 34.4596 32.1332 34.0213 32.6204 33.7325C33.1076 33.4437 33.5505 33.301 33.9422 33.301C34.334 33.301 34.5964 33.3894 34.7292 33.5626C34.8621 33.7359 34.8962 34.0043 34.8383 34.3645C34.7803 34.7246 34.5657 35.343 34.2012 36.2603C34.0479 36.651 33.9354 36.9466 33.8707 37.1437C34.6509 35.805 35.4345 34.8299 36.2214 34.2184C37.0084 33.6068 37.7 33.3044 38.2928 33.3044C39.0219 33.3044 39.3183 33.6578 39.1888 34.3679C39.1105 34.7926 38.8481 35.5604 38.4018 36.6714C38.0203 37.6193 37.8022 38.2445 37.7477 38.5503C37.6694 38.9852 37.7886 39.2026 38.1089 39.2026C38.3269 39.2026 38.6131 39.0701 38.964 38.8017C39.3149 38.5367 39.8021 38.1018 40.4221 37.5038C40.5822 37.3509 40.7458 37.2762 40.9127 37.2762C41.0558 37.2762 41.158 37.3407 41.2159 37.4733C41.2738 37.6024 41.2807 37.7824 41.2364 38.0135C41.1512 38.4484 40.9843 38.7881 40.7287 39.0259C40.1462 39.6035 39.55 40.0758 38.9401 40.4461C38.3303 40.8165 37.683 41.0033 36.9948 41.0033C36.4395 41.0033 36.0443 40.8436 35.8194 40.5209C35.5912 40.2015 35.5298 39.7326 35.6355 39.1245C35.69 38.8187 35.8603 38.2751 36.1533 37.4902C36.419 36.8039 36.5724 36.3317 36.62 36.0701C36.6507 35.8968 36.6064 35.8084 36.4838 35.8084C36.3407 35.8084 36.1022 35.9919 35.7717 36.3554C35.4413 36.719 35.0938 37.2014 34.7258 37.8028C34.3579 38.4008 34.0376 39.0327 33.7617 39.6987C33.5539 40.2219 33.3563 40.5684 33.1655 40.7451C32.9781 40.9184 32.709 41.0067 32.3615 41.0067C32.0139 41.0067 31.7584 40.8335 31.6324 40.4937C31.5063 40.1505 31.4859 39.7326 31.5642 39.2434C31.6324 38.8289 31.7823 38.2309 32.0208 37.4461C32.2218 36.7496 32.341 36.2909 32.3751 36.0734C32.4023 35.9002 32.3546 35.8118 32.2354 35.8118C32.0685 35.8118 31.8266 36.0089 31.5097 36.3996C31.1929 36.7903 30.8658 37.2932 30.532 37.9013C30.1981 38.5129 29.9153 39.1109 29.6802 39.6987C29.4792 40.2117 29.285 40.5549 29.1011 40.7349C28.9137 40.915 28.6514 41.0033 28.3141 41.0033C27.8984 41.0033 27.6395 40.7859 27.5339 40.351L27.5305 40.3476Z" fill="#585A63"/>
<path d="M45.2904 37.4733C45.2359 37.3442 45.1337 37.2762 44.9906 37.2762C44.8237 37.2762 44.6602 37.351 44.4966 37.5039C43.8834 38.0916 43.3996 38.5231 43.0487 38.7949C42.6978 39.0667 42.4253 39.2026 42.2277 39.2026C42.0198 39.2026 41.887 39.1143 41.8325 38.941C41.778 38.7678 41.7848 38.5163 41.8461 38.1902C41.9279 37.7655 42.2174 36.9534 42.7183 35.7575C43.1237 34.7654 43.3519 34.1335 43.4064 33.8616C43.478 33.4913 43.2293 33.3044 42.6603 33.3044C42.2924 33.3044 42.0096 33.369 41.8154 33.5015C41.6212 33.6306 41.4441 33.8718 41.2771 34.2218C40.9501 34.8843 40.6503 35.6012 40.3777 36.3691C40.1052 37.1369 39.9246 37.7655 39.8326 38.2547C39.6759 39.0837 39.7134 39.7463 39.9416 40.2491C40.1699 40.7485 40.6367 41 41.3487 41C42.289 41 43.4303 40.3408 44.7828 39.0226C45.0417 38.7847 45.2155 38.445 45.3041 38.0101C45.3518 37.7825 45.345 37.6024 45.2904 37.4699V37.4733Z" fill="#585A63"/>
<path d="M41.7711 32.292C42.3401 31.9556 42.7489 31.9692 43.0998 31.9217C43.7778 31.8231 44.2343 31.6872 44.5273 31.5072C44.8918 31.2863 45.1542 31.0621 45.2836 30.5694C45.3892 30.1651 45.3313 29.8424 45.1099 29.6011C44.885 29.3599 44.5477 29.224 44.0946 29.1934C43.5938 29.1594 43.1373 29.2716 42.7251 29.5366C42.398 29.7472 42.1697 30.0122 42.0335 30.3316C42.0267 30.3452 42.0164 30.3588 42.0096 30.3758C41.8359 30.8073 41.6655 31.6974 41.5838 32.1697C41.5667 32.275 41.6792 32.3498 41.7711 32.2954V32.292Z" fill="#B0B720"/>
<path d="M50.6903 37.4733C50.7448 37.6024 50.7448 37.7825 50.6937 38.0135C50.5984 38.4484 50.4178 38.7882 50.1555 39.026C49.5558 39.6036 48.9392 40.0759 48.3055 40.4462C47.6718 40.8165 47.0075 41.0034 46.3091 41.0034C45.3484 41.0034 44.7249 40.5685 44.4353 39.6953C44.1457 38.8255 44.1389 37.6976 44.4149 36.3147C44.6806 34.9863 45.161 33.471 45.8594 31.7722C46.5612 30.0734 47.3857 28.6124 48.3362 27.3927C49.2935 26.173 50.2611 25.5614 51.2354 25.5614C51.7874 25.5614 52.1655 25.8026 52.3733 26.2885C52.5812 26.7743 52.5846 27.4674 52.3836 28.3712C52.0974 29.6691 51.3922 31.1708 50.2781 32.8798C49.1709 34.5888 47.8149 36.2842 46.2137 37.9592C46.1967 38.4076 46.258 38.7236 46.3943 38.9139C46.5305 39.1041 46.7418 39.1993 47.0279 39.1993C47.4777 39.1993 47.9001 39.0702 48.2953 38.8154C48.6905 38.5605 49.222 38.1222 49.8863 37.5005C50.0533 37.3476 50.2168 37.2729 50.3837 37.2729C50.5268 37.2729 50.6256 37.3374 50.6801 37.4699L50.6903 37.4733ZM49.3412 28.5377C48.82 29.4414 48.2987 30.5626 47.7706 31.9047C47.246 33.2433 46.844 34.531 46.5646 35.7609C47.6207 34.4868 48.5202 33.2094 49.2663 31.9285C50.0124 30.6476 50.503 29.4822 50.7312 28.4256C50.9084 27.5966 50.8402 27.1854 50.52 27.1854C50.2577 27.1854 49.8659 27.6373 49.3446 28.5411L49.3412 28.5377Z" fill="#585A63"/>
<path d="M55.7361 38.1052C55.7872 38.2344 55.8179 38.4552 55.7463 38.693C55.6305 39.077 55.4158 39.3488 55.1603 39.6342C54.7413 40.0724 54.1962 40.3476 53.6375 40.6093C53.0787 40.8709 52.4553 41 51.7671 41C50.7178 41 49.9751 40.6874 49.5322 40.0622C49.0893 39.4371 48.9803 38.5877 49.2119 37.5209C49.3755 36.77 49.6889 36.0701 50.1522 35.4212C50.6156 34.7722 51.1777 34.2592 51.8386 33.8787C52.4996 33.4981 53.1946 33.3079 53.9236 33.3079C54.5709 33.3079 55.0479 33.4947 55.3545 33.8719C55.6577 34.249 55.7327 34.7586 55.5794 35.4008C55.4022 36.1516 54.9764 36.7972 54.3018 37.3374C53.6306 37.8776 52.6018 38.3023 51.222 38.6183C51.3719 39.1211 51.7603 39.3691 52.3871 39.3691C52.8368 39.3691 53.232 39.2672 53.5693 39.06C53.91 38.8527 54.4279 38.6251 54.9287 38.1358C55.099 37.9727 55.2659 37.8912 55.4329 37.8912C55.576 37.8912 55.6816 37.9761 55.7361 38.1086V38.1052ZM52.0703 35.6114C51.6819 36.0803 51.4128 36.6477 51.2663 37.3102L51.2595 37.3442C51.9442 37.1913 52.5132 36.9637 52.9595 36.6579C53.4058 36.3521 53.6749 35.9987 53.7703 35.5978C53.818 35.3906 53.7976 35.2241 53.709 35.0984C53.6204 34.9727 53.4773 34.9115 53.2763 34.9115C52.8641 34.9115 52.4621 35.146 52.0737 35.6148L52.0703 35.6114Z" fill="#585A63"/>
</g>
<g clip-path="url(#clip1_133_3425)">
<path d="M92.4441 36.6199H93.791V28.4829H95.1029V27.3801H92.4441V36.6199Z" fill="#795035"/>
<path d="M89.068 31.574V28.5331H91.0446V27.4303H85.727V28.5331H87.7036V31.574C87.7036 31.7578 87.6686 31.9249 87.5987 32.0084C87.1614 32.5431 85.2722 34.6483 85.2722 34.6483L86.2343 35.4503C86.2343 35.4503 87.7911 33.696 88.4383 32.9274L90.7997 35.3L91.6569 34.4813L89.1555 31.975C89.1555 31.975 89.0855 31.7244 89.0855 31.5907" fill="#795035"/>
<path d="M103.079 34.1805L104.444 34.1638V27.3801H101.505V28.4996H103.079V29.736H101.505V30.8388H103.079V34.1805Z" fill="#795035"/>
<path d="M99.0212 33.3951H97.6743V36.6366H104.636V35.5338H99.0212V33.3951Z" fill="#795035"/>
<path d="M97.3244 30.4879V29.2181C97.3244 28.5497 97.8841 28.249 98.4264 28.249C98.9861 28.249 99.5284 28.5665 99.5284 29.2181V30.4879C99.5284 31.0894 98.9686 31.4069 98.4264 31.4236C97.8841 31.4236 97.3244 31.0894 97.3244 30.4879M98.4264 32.5264H98.6013C99.9482 32.4428 100.875 31.6241 100.875 30.4712V29.2348C100.875 28.0819 99.9307 27.2298 98.6013 27.1462H98.2339C96.9045 27.2298 95.96 28.0819 95.96 29.2348V30.4712C95.96 31.6241 96.887 32.4428 98.2339 32.5264H98.4264Z" fill="#795035"/>
<path d="M120.047 30.9725C120.047 31.6241 119.434 31.975 118.875 31.975C118.315 31.975 117.685 31.6241 117.685 30.9892V29.3518C117.685 28.6333 118.28 28.3158 118.875 28.3158C119.469 28.3158 120.047 28.6667 120.047 29.3351V30.9892V30.9725ZM121.219 28.3994C120.816 27.6308 119.942 27.163 118.875 27.163C117.37 27.163 116.286 28.0819 116.286 29.3351V30.9558C116.286 32.1922 117.37 33.0945 118.875 33.0945C119.784 33.0945 120.571 32.7436 121.044 32.1421C121.079 32.0752 121.429 31.5239 121.429 30.9558V29.3184C121.429 28.9675 121.236 28.4662 121.219 28.4161V28.3994Z" fill="#795035"/>
<path d="M122.636 27.3969V34.4144H115.884V35.5673H122.636V36.6199H124V27.3969H122.636Z" fill="#795035"/>
<path d="M114.869 33.061H105.826V34.1805H109.674V36.6366H111.021V34.1805H114.869V33.061Z" fill="#795035"/>
<path d="M111.633 29.9866L111.143 29.7193C111.143 29.7193 111.021 29.6023 111.021 29.5188V28.4996H113.89V27.3467H106.788V28.4996H109.656V29.5188C109.656 29.5188 109.604 29.6692 109.534 29.7193L109.044 29.9866L106.56 31.3734L107.19 32.4093L110.321 30.655L113.452 32.4093L114.082 31.3734L111.598 29.9866H111.633Z" fill="#795035"/>
<path d="M81.3192 32.8605C81.1617 32.8605 81.1092 32.8104 81.0043 32.7436C80.8819 32.66 80.7069 32.5264 80.4096 32.5264C80.1122 32.5264 79.9373 32.6433 79.8148 32.7436C79.7099 32.8104 79.6574 32.8605 79.5 32.8605C79.3425 32.8605 79.2901 32.8104 79.1851 32.7436C79.0627 32.66 78.8877 32.5264 78.5904 32.5264C78.293 32.5264 78.1181 32.6433 77.9956 32.7436C77.8907 32.8104 77.8207 32.8605 77.6808 32.8605C77.5409 32.8605 77.4709 32.8104 77.3659 32.7436C77.2435 32.66 77.0686 32.5264 76.7712 32.5264C76.4738 32.5264 76.2989 32.6433 76.159 32.7436C76.054 32.8104 76.0015 32.8605 75.8441 32.8605C75.6867 32.8605 75.6342 32.8104 75.5293 32.7436C75.4068 32.66 75.2319 32.5264 74.9345 32.5264C74.6896 32.5264 74.5322 32.6099 74.4272 32.6767L74.7596 32.9942C74.7596 32.9942 74.8645 32.9608 74.9345 32.9608C75.0919 32.9608 75.1444 33.0109 75.2494 33.0777C75.3718 33.1613 75.5467 33.295 75.8441 33.295C76.1415 33.295 76.3164 33.178 76.4388 33.0777C76.5438 32.9942 76.5963 32.9608 76.7537 32.9608C76.9111 32.9608 76.9636 33.0109 77.0686 33.0777C77.191 33.1613 77.3659 33.295 77.6633 33.295C77.9607 33.295 78.1356 33.178 78.258 33.0777C78.363 32.9942 78.433 32.9608 78.5729 32.9608C78.7128 32.9608 78.7828 33.0109 78.8877 33.0777C79.0102 33.1613 79.1851 33.295 79.4825 33.295C79.7798 33.295 79.9548 33.178 80.0772 33.0777C80.1822 32.9942 80.2521 32.9608 80.3921 32.9608C80.532 32.9608 80.602 33.0109 80.7069 33.0777C80.8294 33.1613 81.0043 33.295 81.3017 33.295C81.3541 33.295 81.4066 33.295 81.4591 33.295V32.8438C81.4591 32.8438 81.3716 32.8605 81.3017 32.8605" fill="#795035"/>
<path d="M81.3191 34.0468C81.1617 34.0468 81.1092 33.9967 81.0043 33.9299C80.8818 33.8463 80.7069 33.7126 80.4095 33.7126C80.1122 33.7126 79.9372 33.8296 79.8148 33.9299C79.7098 34.0134 79.6574 34.0468 79.4999 34.0468C79.3425 34.0468 79.29 33.9967 79.1851 33.9299C79.0626 33.8463 78.8877 33.7126 78.5903 33.7126C78.293 33.7126 78.1181 33.8296 77.9956 33.9299C77.8907 34.0134 77.8207 34.0468 77.6808 34.0468C77.5408 34.0468 77.4709 33.9967 77.3659 33.9299C77.2435 33.8463 77.0685 33.7126 76.7712 33.7126C76.4738 33.7126 76.2989 33.8296 76.1589 33.9299C76.054 33.9967 76.0015 34.0468 75.8616 34.0468L76.2289 34.3977C76.2289 34.3977 76.3863 34.3142 76.4388 34.264C76.5438 34.1805 76.5962 34.1471 76.7537 34.1471C76.9111 34.1471 76.9636 34.1972 77.0685 34.264C77.191 34.3476 77.3659 34.4812 77.6633 34.4812C77.9606 34.4812 78.1356 34.3643 78.258 34.264C78.363 34.1805 78.4329 34.1471 78.5729 34.1471C78.7128 34.1471 78.7828 34.1972 78.8877 34.264C79.0102 34.3476 79.1851 34.4812 79.4824 34.4812C79.7798 34.4812 79.9547 34.3643 80.0772 34.264C80.1821 34.1805 80.2521 34.1471 80.392 34.1471C80.532 34.1471 80.6019 34.1972 80.7069 34.264C80.8293 34.3476 81.0043 34.4812 81.3016 34.4812C81.3541 34.4812 81.4066 34.4812 81.4591 34.4812V34.0301C81.4591 34.0301 81.3716 34.0468 81.3016 34.0468" fill="#795035"/>
<path d="M81.3192 35.2331C81.1618 35.2331 81.1093 35.183 81.0043 35.1161C80.8819 35.0159 80.707 34.8989 80.4096 34.8989C80.1122 34.8989 79.9373 35.0159 79.8149 35.1161C79.7099 35.183 79.6574 35.2331 79.5 35.2331C79.3426 35.2331 79.2901 35.183 79.1852 35.1161C79.0627 35.0159 78.8878 34.8989 78.5904 34.8989C78.2931 34.8989 78.1181 35.0159 77.9957 35.1161C77.8907 35.183 77.8208 35.2331 77.6808 35.2331C77.5409 35.2331 77.4709 35.183 77.366 35.1161C77.2435 35.0326 77.0686 34.8989 76.7712 34.8989L77.5934 35.6675C77.5934 35.6675 77.6633 35.6675 77.6808 35.6675C77.9957 35.6675 78.1531 35.5506 78.2756 35.4503C78.3805 35.3668 78.4505 35.3333 78.5904 35.3333C78.7304 35.3333 78.8003 35.3835 78.9053 35.4503C79.0277 35.5338 79.2026 35.6675 79.5 35.6675C79.7974 35.6675 79.9723 35.5506 80.0948 35.4503C80.1997 35.3668 80.2697 35.3333 80.4096 35.3333C80.5495 35.3333 80.6195 35.3835 80.7245 35.4503C80.8469 35.5338 81.0218 35.6675 81.3192 35.6675C81.3717 35.6675 81.4242 35.6675 81.4766 35.6675V35.2164C81.4766 35.2164 81.3892 35.2331 81.3192 35.2331" fill="#795035"/>
<path d="M81.3191 36.4194C81.1616 36.4194 81.1092 36.3692 81.0042 36.3024C80.8818 36.2189 80.7068 36.0852 80.4095 36.0852C80.1121 36.0852 79.9372 36.2022 79.8147 36.3024C79.7098 36.3692 79.6573 36.4194 79.4999 36.4194C79.3425 36.4194 79.29 36.3692 79.185 36.3024C79.0626 36.2189 78.8877 36.0852 78.5903 36.0852C78.3979 36.0852 78.2579 36.1353 78.1355 36.2022L78.4853 36.5363C78.4853 36.5363 78.5378 36.5363 78.5728 36.5363C78.7302 36.5363 78.7827 36.5865 78.8877 36.6533C79.0101 36.7368 79.185 36.8705 79.4824 36.8705C79.7798 36.8705 79.9547 36.7535 80.0771 36.6533C80.1821 36.5698 80.252 36.5363 80.392 36.5363C80.5319 36.5363 80.6019 36.5865 80.7068 36.6533C80.8293 36.7368 81.0042 36.8705 81.3016 36.8705C81.3541 36.8705 81.4065 36.8705 81.459 36.8705V36.4194C81.459 36.4194 81.3715 36.4361 81.3016 36.4361" fill="#795035"/>
<path d="M81.3192 37.5889C81.1618 37.5889 81.1093 37.5388 81.0044 37.472C80.8819 37.3884 80.707 37.2548 80.4096 37.2548C80.1123 37.2548 79.9373 37.3717 79.8149 37.472C79.7449 37.5221 79.6924 37.5722 79.605 37.5722L79.9548 37.9064C79.9548 37.9064 80.0598 37.8396 80.0948 37.8061C80.1997 37.7393 80.2697 37.6892 80.4096 37.6892C80.5496 37.6892 80.6195 37.7393 80.7245 37.8061C80.8469 37.8897 81.0218 38.0233 81.3192 38.0233C81.3717 38.0233 81.4242 38.0233 81.4766 38.0233V37.5722C81.4766 37.5722 81.3892 37.5889 81.3192 37.5889Z" fill="#795035"/>
<path d="M81.3191 38.7752C81.1617 38.7752 81.1092 38.7251 81.0043 38.6583C80.8993 38.5747 80.7594 38.4745 80.532 38.4578L81.3366 39.2096C81.3366 39.2096 81.4241 39.2096 81.4766 39.2096V38.7585C81.4766 38.7585 81.3891 38.7752 81.3191 38.7752" fill="#795035"/>
<path d="M65.7684 32.9273C65.7684 33.1445 65.5935 33.3116 65.3661 33.3116C65.1387 33.3116 64.9463 33.1445 64.9463 32.9273C64.9463 32.7101 65.1387 32.543 65.3661 32.543C65.5935 32.543 65.7684 32.7101 65.7684 32.9273Z" fill="#795035"/>
<path d="M67.2555 32.9273C67.2555 33.1445 67.0806 33.3116 66.8532 33.3116C66.6258 33.3116 66.4333 33.1445 66.4333 32.9273C66.4333 32.7101 66.6083 32.543 66.8532 32.543C67.0981 32.543 67.2555 32.7101 67.2555 32.9273Z" fill="#795035"/>
<path d="M68.7247 32.9273C68.7247 33.1445 68.5323 33.3116 68.3049 33.3116C68.0775 33.3116 67.9026 33.1445 67.9026 32.9273C67.9026 32.7101 68.0775 32.543 68.3049 32.543C68.5323 32.543 68.7247 32.7101 68.7247 32.9273Z" fill="#795035"/>
<path d="M70.1941 32.9273C70.1941 33.1445 70.0017 33.3116 69.7743 33.3116C69.5469 33.3116 69.3545 33.1445 69.3545 32.9273C69.3545 32.7101 69.5469 32.543 69.7743 32.543C70.0017 32.543 70.1941 32.7101 70.1941 32.9273Z" fill="#795035"/>
<path d="M71.681 32.9273C71.681 33.1445 71.5061 33.3116 71.2787 33.3116C71.0513 33.3116 70.8589 33.1445 70.8589 32.9273C70.8589 32.7101 71.0513 32.543 71.2787 32.543C71.5061 32.543 71.681 32.7101 71.681 32.9273Z" fill="#795035"/>
<path d="M65.7684 34.2974C65.7684 34.5146 65.5935 34.6817 65.3661 34.6817C65.1387 34.6817 64.9463 34.5146 64.9463 34.2974C64.9463 34.0802 65.1387 33.9131 65.3661 33.9131C65.5935 33.9131 65.7684 34.0802 65.7684 34.2974Z" fill="#795035"/>
<path d="M67.2555 34.2974C67.2555 34.5146 67.0806 34.6817 66.8532 34.6817C66.6258 34.6817 66.4333 34.5146 66.4333 34.2974C66.4333 34.0802 66.6083 33.9131 66.8532 33.9131C67.0981 33.9131 67.2555 34.0802 67.2555 34.2974Z" fill="#795035"/>
<path d="M68.7247 34.2974C68.7247 34.5146 68.5323 34.6817 68.3049 34.6817C68.0775 34.6817 67.9026 34.5146 67.9026 34.2974C67.9026 34.0802 68.0775 33.9131 68.3049 33.9131C68.5323 33.9131 68.7247 34.0802 68.7247 34.2974Z" fill="#795035"/>
<path d="M70.1941 34.2974C70.1941 34.5146 70.0017 34.6817 69.7743 34.6817C69.5469 34.6817 69.3545 34.5146 69.3545 34.2974C69.3545 34.0802 69.5469 33.9131 69.7743 33.9131C70.0017 33.9131 70.1941 34.0802 70.1941 34.2974Z" fill="#795035"/>
<path d="M65.7684 35.6842C65.7684 35.9014 65.5935 36.0685 65.3661 36.0685C65.1387 36.0685 64.9463 35.9014 64.9463 35.6842C64.9463 35.467 65.1387 35.2999 65.3661 35.2999C65.5935 35.2999 65.7684 35.467 65.7684 35.6842Z" fill="#795035"/>
<path d="M67.2555 35.6842C67.2555 35.9014 67.0806 36.0685 66.8532 36.0685C66.6258 36.0685 66.4333 35.9014 66.4333 35.6842C66.4333 35.467 66.6083 35.2999 66.8532 35.2999C67.0981 35.2999 67.2555 35.467 67.2555 35.6842Z" fill="#795035"/>
<path d="M68.7247 35.6842C68.7247 35.9014 68.5323 36.0685 68.3049 36.0685C68.0775 36.0685 67.9026 35.9014 67.9026 35.6842C67.9026 35.467 68.0775 35.2999 68.3049 35.2999C68.5323 35.2999 68.7247 35.467 68.7247 35.6842Z" fill="#795035"/>
<path d="M65.7684 37.0543C65.7684 37.2715 65.5935 37.4386 65.3661 37.4386C65.1387 37.4386 64.9463 37.2715 64.9463 37.0543C64.9463 36.8371 65.1387 36.67 65.3661 36.67C65.5935 36.67 65.7684 36.8371 65.7684 37.0543Z" fill="#795035"/>
<path d="M67.2555 37.0543C67.2555 37.2715 67.0806 37.4386 66.8532 37.4386C66.6258 37.4386 66.4333 37.2715 66.4333 37.0543C66.4333 36.8371 66.6083 36.67 66.8532 36.67C67.0981 36.67 67.2555 36.8371 67.2555 37.0543Z" fill="#795035"/>
<path d="M65.7684 38.4411C65.7684 38.6583 65.5935 38.8254 65.3661 38.8254C65.1387 38.8254 64.9463 38.6583 64.9463 38.4411C64.9463 38.2238 65.1387 38.0568 65.3661 38.0568C65.5935 38.0568 65.7684 38.2238 65.7684 38.4411Z" fill="#795035"/>
<path d="M81.459 26.5614H64.929V27.2464H81.459V26.5614Z" fill="#795035"/>
<path d="M81.459 28.2156H64.929V28.9006H81.459V28.2156Z" fill="#795035"/>
<path d="M81.459 29.8696H64.929V30.5547H81.459V29.8696Z" fill="#795035"/>
<path d="M81.459 31.5405H64.929V32.2256H81.459V31.5405Z" fill="#795035"/>
<path d="M70.1765 35.0493V42H70.9112V34.3475L70.1765 35.0493Z" fill="#795035"/>
<path d="M68.4275 36.6868V42H69.1622V36.0017L68.4275 36.6868Z" fill="#795035"/>
<path d="M66.6782 38.3408V42H67.4129V37.6558L66.6782 38.3408Z" fill="#795035"/>
<path d="M64.929 39.9783V42H65.6636V39.2932L64.929 39.9783Z" fill="#795035"/>
<path d="M71.9434 33.3951V42H72.6605V32.7101L71.9434 33.3951Z" fill="#795035"/>
<path d="M77.1909 42H77.9256V36.6533L77.1909 35.9515V42Z" fill="#795035"/>
<path d="M75.4417 42H76.1763V34.9991L75.4417 34.3141V42Z" fill="#795035"/>
<path d="M73.6926 41.9999H74.4273V33.3617L73.6926 32.6766V41.9999Z" fill="#795035"/>
<path d="M80.7244 42H81.459V39.9615L80.7244 39.2765V42Z" fill="#795035"/>
<path d="M78.9402 42H79.6749V38.2908L78.9402 37.6057V42Z" fill="#795035"/>
<path d="M87.1965 39.6608H86.8117V39.594C86.8117 39.4937 86.7767 39.4102 86.7067 39.3434C86.6368 39.2765 86.5318 39.2431 86.4094 39.2431C86.2869 39.2431 86.182 39.2765 86.112 39.3267C86.042 39.3935 86.007 39.4603 86.007 39.5439C86.007 39.6107 86.0245 39.6608 86.077 39.7277C86.1295 39.7778 86.182 39.8279 86.2694 39.8446L86.6368 39.995C86.6368 39.995 86.7767 40.0451 86.8117 40.0618C86.8642 40.0785 86.9166 40.112 86.9691 40.1454C87.0216 40.1788 87.0741 40.2289 87.109 40.2623C87.144 40.3125 87.179 40.3626 87.1965 40.4294C87.214 40.4963 87.2315 40.5631 87.2315 40.6466C87.2315 40.8638 87.1615 41.0309 87.0041 41.1646C86.8467 41.2983 86.6543 41.3651 86.4094 41.3651C86.1645 41.3651 85.9546 41.2983 85.7971 41.1813C85.6397 41.0643 85.5522 40.8973 85.5522 40.68V40.6132H85.9371V40.6968C85.9371 40.8137 85.9721 40.8973 86.0595 40.9641C86.147 41.0309 86.2519 41.0643 86.3919 41.0643C86.5318 41.0643 86.6543 41.0309 86.7242 40.9641C86.7942 40.8973 86.8467 40.8137 86.8467 40.7135C86.8467 40.5464 86.7417 40.4294 86.5143 40.3459L86.147 40.2122C85.7971 40.0785 85.6222 39.878 85.6222 39.5773C85.6222 39.3935 85.6922 39.2431 85.8321 39.1095C85.9721 38.9925 86.1645 38.9257 86.3919 38.9257C86.6193 38.9257 86.8292 38.9925 86.9691 39.1095C87.109 39.2264 87.179 39.3935 87.179 39.6107V39.6608H87.1965Z" fill="#795035"/>
<path d="M87.6162 40.7301V39.5605H88.001V40.7134C88.001 40.8137 88.036 40.8972 88.0885 40.9473C88.141 41.0142 88.2284 41.0476 88.3334 41.0476C88.4383 41.0476 88.5258 41.0142 88.5958 40.9473C88.6657 40.8805 88.7007 40.797 88.7007 40.68V39.5605H89.0681V41.3316H88.7532L88.7182 41.1478C88.6133 41.2982 88.4383 41.3651 88.2459 41.3651C88.0535 41.3651 87.8961 41.2982 87.7911 41.198C87.6862 41.081 87.6337 40.9306 87.6337 40.7301" fill="#795035"/>
<path d="M90.2051 39.8446C90.1002 39.8446 90.0127 39.878 89.9427 39.9448C89.8728 40.0117 89.8553 40.0952 89.8553 40.2122V40.6967C89.8553 40.797 89.8903 40.8972 89.9427 40.964C90.0127 41.0309 90.1002 41.0643 90.2051 41.0643C90.3101 41.0643 90.3975 41.0309 90.45 40.964C90.5025 40.8972 90.5375 40.8137 90.5375 40.7134V40.2122C90.5375 40.1119 90.5025 40.0284 90.45 39.9615C90.3975 39.8947 90.3101 39.8613 90.2051 39.8613M89.7853 39.5772L89.8203 39.761C89.9253 39.6107 90.0827 39.5438 90.2926 39.5438C90.5025 39.5438 90.6424 39.6107 90.7649 39.7276C90.8698 39.8446 90.9223 40.0117 90.9223 40.2122V40.6967C90.9223 40.8972 90.8698 41.0643 90.7649 41.1813C90.6599 41.2982 90.5025 41.365 90.2926 41.365C90.0827 41.365 89.9602 41.2982 89.8553 41.1813V42.0167H89.4705V39.5772H89.7853V39.5772Z" fill="#795035"/>
<path d="M91.6394 40.1787V40.2456H92.3391V40.1787C92.3391 40.0785 92.3041 39.9782 92.2516 39.9114C92.1817 39.8446 92.1117 39.8111 91.9892 39.8111C91.8668 39.8111 91.7968 39.8446 91.7269 39.9114C91.6569 39.9782 91.6394 40.0618 91.6394 40.1787M92.3391 40.7134H92.7064C92.7064 40.9306 92.6364 41.081 92.514 41.1812C92.3741 41.2982 92.2166 41.3483 92.0067 41.3483C91.7968 41.3483 91.6219 41.2815 91.482 41.1645C91.342 41.0309 91.2896 40.8805 91.2896 40.6633V40.2121C91.2896 39.9949 91.3595 39.8279 91.482 39.7109C91.6219 39.5772 91.7968 39.5271 92.0067 39.5271C92.2166 39.5271 92.3916 39.5939 92.514 39.7276C92.6539 39.8613 92.7064 40.0284 92.7064 40.2289V40.5129H91.6394V40.7301C91.6394 40.8304 91.6744 40.9139 91.7269 40.9807C91.7968 41.0476 91.8843 41.081 91.9892 41.081C92.0942 41.081 92.1817 41.0476 92.2516 40.9974C92.3041 40.9306 92.3391 40.8638 92.3391 40.7635V40.7301V40.7134Z" fill="#795035"/>
<path d="M93.4586 41.3317H93.0737V39.5606H93.3886L93.4236 39.7611C93.5285 39.594 93.686 39.5105 93.8784 39.5105C93.9308 39.5105 93.9658 39.5105 93.9833 39.5105V39.8447C93.9833 39.8447 93.8784 39.8447 93.8434 39.8447C93.7209 39.8447 93.6335 39.8781 93.5635 39.9449C93.4935 40.0118 93.4586 40.0953 93.4586 40.2123V41.2983V41.3317Z" fill="#795035"/>
<path d="M94.2981 39.5605H94.6821V41.3316H94.2981V39.5605ZM94.333 39.2263C94.333 39.2263 94.2632 39.1428 94.2632 39.076C94.2632 39.0091 94.2806 38.959 94.333 38.9256C94.3679 38.8755 94.4203 38.8588 94.4901 38.8588C94.5599 38.8588 94.6123 38.8755 94.6472 38.9256C94.6821 38.959 94.717 39.0091 94.717 39.076C94.717 39.1428 94.6996 39.1929 94.6472 39.2263C94.5948 39.2598 94.5425 39.2932 94.4901 39.2932C94.4377 39.2932 94.3679 39.2765 94.333 39.2263Z" fill="#795035"/>
<path d="M95.4178 40.1954V40.68C95.4178 40.7802 95.4528 40.8805 95.5052 40.9473C95.5752 41.0141 95.6452 41.0476 95.7676 41.0476C95.8901 41.0476 95.96 41.0141 96.03 40.9473C96.1 40.8805 96.1175 40.7969 96.1175 40.68V40.1954C96.1175 40.0952 96.0825 39.9949 96.03 39.9281C95.96 39.8613 95.8901 39.8279 95.7676 39.8279C95.6452 39.8279 95.5752 39.8613 95.5052 39.9281C95.4353 39.9949 95.4178 40.0785 95.4178 40.1954ZM96.5023 40.2289V40.6633C96.5023 40.8805 96.4323 41.0476 96.2924 41.1812C96.1525 41.2982 95.9775 41.365 95.7676 41.365C95.5577 41.365 95.3653 41.2982 95.2429 41.1812C95.1029 41.0476 95.033 40.8805 95.033 40.6633V40.2289C95.033 40.0116 95.1029 39.8446 95.2429 39.7109C95.3828 39.5939 95.5577 39.5271 95.7676 39.5271C95.9775 39.5271 96.17 39.5939 96.2924 39.7109C96.4323 39.8446 96.5023 40.0116 96.5023 40.2289Z" fill="#795035"/>
<path d="M97.2545 41.3317H96.8696V39.5606H97.1845L97.2195 39.7611C97.3244 39.594 97.4819 39.5105 97.6743 39.5105C97.7267 39.5105 97.7442 39.5105 97.7792 39.5105V39.8447C97.7792 39.8447 97.6743 39.8447 97.6393 39.8447C97.5168 39.8447 97.4294 39.8781 97.3594 39.9449C97.2894 40.0118 97.2545 40.0953 97.2545 40.2123V41.2983V41.3317Z" fill="#795035"/>
<path d="M100.193 38.9591V40.5798L99.231 38.9591H98.8987V41.315H99.266V39.6776L100.228 41.315H100.543V38.9591H100.193Z" fill="#795035"/>
<path d="M101.435 40.9474C101.435 40.9474 101.575 41.0477 101.68 41.0477C101.785 41.0477 101.872 41.0143 101.942 40.9474C102.012 40.8806 102.047 40.797 102.047 40.6801V40.2123C102.047 40.112 102.012 40.0118 101.942 39.9449C101.872 39.8781 101.785 39.8447 101.68 39.8447C101.575 39.8447 101.488 39.8781 101.435 39.9449C101.383 40.0118 101.348 40.0953 101.348 40.1955V40.6968C101.348 40.797 101.383 40.8806 101.435 40.9474M100.963 40.6801V40.1788C100.963 39.9783 101.015 39.8113 101.12 39.6943C101.225 39.5773 101.383 39.5105 101.593 39.5105C101.803 39.5105 101.96 39.5773 102.065 39.7277L102.1 39.5439H102.415V41.2983H102.1L102.065 41.1145C101.96 41.2649 101.803 41.3317 101.593 41.3317C101.383 41.3317 101.243 41.2649 101.12 41.1479C101.015 41.031 100.963 40.8639 100.963 40.6634" fill="#795035"/>
<path d="M103.062 39.0928V39.5773H102.747V39.8781H103.062V41.315H103.447V39.8781H103.779V39.5773H103.447V39.0928H103.062Z" fill="#795035"/>
<path d="M104.094 40.7301V39.5605H104.479V40.7134C104.479 40.8137 104.514 40.8972 104.566 40.9473C104.619 41.0142 104.706 41.0476 104.811 41.0476C104.916 41.0476 105.004 41.0142 105.074 40.9473C105.144 40.8805 105.179 40.797 105.179 40.68V39.5605H105.546V41.3316H105.231L105.196 41.1478C105.091 41.2982 104.916 41.3651 104.724 41.3651C104.531 41.3651 104.374 41.2982 104.269 41.198C104.164 41.081 104.111 40.9306 104.111 40.7301" fill="#795035"/>
<path d="M106.333 41.3317H105.948V39.5606H106.263L106.298 39.7611C106.403 39.594 106.56 39.5105 106.753 39.5105C106.805 39.5105 106.823 39.5105 106.858 39.5105V39.8447C106.858 39.8447 106.753 39.8447 106.718 39.8447C106.595 39.8447 106.508 39.8781 106.438 39.9449C106.368 40.0118 106.333 40.0953 106.333 40.2123V41.2983V41.3317Z" fill="#795035"/>
<path d="M107.557 40.9474C107.557 40.9474 107.697 41.0477 107.802 41.0477C107.907 41.0477 107.995 41.0143 108.065 40.9474C108.134 40.8806 108.169 40.797 108.169 40.6801V40.2123C108.169 40.112 108.134 40.0118 108.065 39.9449C107.995 39.8781 107.907 39.8447 107.802 39.8447C107.697 39.8447 107.61 39.8781 107.557 39.9449C107.505 40.0118 107.47 40.0953 107.47 40.1955V40.6968C107.47 40.797 107.505 40.8806 107.557 40.9474M107.085 40.6801V40.1788C107.085 39.9783 107.137 39.8113 107.26 39.6943C107.365 39.5773 107.522 39.5105 107.732 39.5105C107.942 39.5105 108.1 39.5773 108.204 39.7277L108.239 39.5439H108.554V41.2983H108.239L108.204 41.1145C108.1 41.2649 107.942 41.3317 107.732 41.3317C107.522 41.3317 107.365 41.2649 107.26 41.1479C107.155 41.031 107.085 40.8639 107.085 40.6634" fill="#795035"/>
<path d="M109.341 38.8755H108.974V41.3149H109.341V38.8755Z" fill="#795035"/>
<path d="M112.088 39.6608H111.703V39.594C111.703 39.4937 111.668 39.4102 111.598 39.3434C111.528 39.2765 111.423 39.2431 111.301 39.2431C111.178 39.2431 111.073 39.2765 111.003 39.3267C110.933 39.3935 110.898 39.4603 110.898 39.5439C110.898 39.6107 110.916 39.6608 110.968 39.7277C111.003 39.7778 111.073 39.8279 111.161 39.8446L111.528 39.995C111.528 39.995 111.668 40.0451 111.703 40.0618C111.755 40.0785 111.808 40.112 111.86 40.1454C111.913 40.1788 111.965 40.2289 112 40.2623C112.035 40.3125 112.07 40.3626 112.088 40.4294C112.105 40.4963 112.123 40.5631 112.123 40.6466C112.123 40.8638 112.053 41.0309 111.895 41.1646C111.738 41.2983 111.545 41.3651 111.301 41.3651C111.056 41.3651 110.846 41.2983 110.688 41.1813C110.531 41.0643 110.461 40.8973 110.461 40.68V40.6132H110.846V40.6968C110.846 40.8137 110.881 40.8973 110.968 40.9641C111.056 41.0309 111.161 41.0643 111.301 41.0643C111.44 41.0643 111.563 41.0309 111.633 40.9641C111.703 40.8973 111.755 40.8137 111.755 40.7135C111.755 40.5464 111.65 40.4294 111.423 40.3459L111.056 40.2122C110.706 40.0785 110.531 39.878 110.531 39.5773C110.531 39.3935 110.601 39.2431 110.741 39.1095C110.881 38.9925 111.073 38.9257 111.301 38.9257C111.528 38.9257 111.738 38.9925 111.878 39.1095C112.018 39.2264 112.088 39.3935 112.088 39.6107V39.6608V39.6608Z" fill="#795035"/>
<path d="M112.718 39.0928V39.5773H112.385V39.8781H112.718V41.315H113.085V39.8781H113.417V39.5773H113.085V39.0928H112.718Z" fill="#795035"/>
<path d="M114.152 40.9474C114.152 40.9474 114.292 41.0477 114.397 41.0477C114.502 41.0477 114.589 41.0143 114.659 40.9474C114.729 40.8806 114.764 40.797 114.764 40.6801V40.2123C114.764 40.112 114.729 40.0118 114.659 39.9449C114.589 39.8781 114.502 39.8447 114.397 39.8447C114.292 39.8447 114.204 39.8781 114.152 39.9449C114.099 40.0118 114.065 40.0953 114.065 40.1955V40.6968C114.065 40.797 114.099 40.8806 114.152 40.9474M113.68 40.6801V40.1788C113.68 39.9783 113.732 39.8113 113.855 39.6943C113.96 39.5773 114.117 39.5105 114.327 39.5105C114.537 39.5105 114.694 39.5773 114.799 39.7277L114.834 39.5439H115.149V41.2983H114.834L114.799 41.1145C114.694 41.2649 114.537 41.3317 114.327 41.3317C114.117 41.3317 113.977 41.2649 113.855 41.1479C113.75 41.031 113.68 40.8639 113.68 40.6634" fill="#795035"/>
<path d="M115.954 41.3316H115.569V39.5605H115.884L115.919 39.7443C116.041 39.5939 116.199 39.5271 116.408 39.5271C116.618 39.5271 116.758 39.5939 116.863 39.7109C116.968 39.8279 117.021 39.9782 117.021 40.1787V41.3316H116.653V40.1954C116.653 40.0952 116.618 40.0116 116.566 39.9448C116.513 39.878 116.426 39.8446 116.304 39.8446C116.181 39.8446 116.111 39.878 116.041 39.9448C115.971 40.0116 115.936 40.0952 115.936 40.2121V41.3316H115.954Z" fill="#795035"/>
<path d="M117.878 40.9473C117.878 40.9473 118.018 41.0476 118.123 41.0476C118.228 41.0476 118.315 41.0142 118.385 40.9473C118.455 40.8805 118.49 40.797 118.49 40.68V40.2122C118.49 40.1119 118.455 40.0117 118.385 39.9448C118.315 39.878 118.228 39.8446 118.123 39.8446C118.018 39.8446 117.93 39.878 117.878 39.9448C117.825 40.0117 117.79 40.0952 117.79 40.1955V40.7134C117.79 40.8137 117.825 40.8972 117.878 40.964M118.56 41.3316L118.525 41.1478C118.42 41.2982 118.263 41.365 118.053 41.365C117.843 41.365 117.685 41.2982 117.58 41.1813C117.475 41.0643 117.406 40.8972 117.406 40.6967V40.1955C117.406 39.995 117.458 39.8279 117.58 39.7109C117.685 39.594 117.843 39.5271 118.053 39.5271C118.245 39.5271 118.385 39.594 118.49 39.7109V38.8755H118.857V41.3149H118.543L118.56 41.3316Z" fill="#795035"/>
<path d="M119.714 40.9474C119.714 40.9474 119.854 41.0477 119.959 41.0477C120.064 41.0477 120.152 41.0143 120.222 40.9474C120.292 40.8806 120.327 40.797 120.327 40.6801V40.2123C120.327 40.112 120.292 40.0118 120.222 39.9449C120.152 39.8781 120.064 39.8447 119.959 39.8447C119.854 39.8447 119.767 39.8781 119.714 39.9449C119.662 40.0118 119.627 40.0953 119.627 40.1955V40.6968C119.627 40.797 119.662 40.8806 119.714 40.9474M119.242 40.6801V40.1788C119.242 39.9783 119.295 39.8113 119.4 39.6943C119.505 39.5773 119.662 39.5105 119.872 39.5105C120.082 39.5105 120.239 39.5773 120.344 39.7277L120.379 39.5439H120.694V41.2983H120.379L120.344 41.1145C120.239 41.2649 120.082 41.3317 119.872 41.3317C119.662 41.3317 119.505 41.2649 119.4 41.1479C119.295 41.031 119.242 40.8639 119.242 40.6634" fill="#795035"/>
<path d="M121.499 41.3317H121.114V39.5606H121.429L121.464 39.7611C121.569 39.594 121.726 39.5105 121.918 39.5105C121.971 39.5105 121.988 39.5105 122.023 39.5105V39.8447C122.023 39.8447 121.918 39.8447 121.883 39.8447C121.761 39.8447 121.674 39.8781 121.604 39.9449C121.534 40.0118 121.499 40.0953 121.499 40.2123V41.2983V41.3317Z" fill="#795035"/>
<path d="M122.705 40.9473C122.705 40.9473 122.845 41.0476 122.95 41.0476C123.055 41.0476 123.143 41.0142 123.213 40.9473C123.283 40.8805 123.318 40.797 123.318 40.68V40.2122C123.318 40.1119 123.283 40.0117 123.213 39.9448C123.143 39.878 123.055 39.8446 122.95 39.8446C122.845 39.8446 122.758 39.878 122.705 39.9448C122.653 40.0117 122.618 40.0952 122.618 40.1955V40.7134C122.618 40.8137 122.653 40.8972 122.705 40.964M123.388 41.3316L123.353 41.1478C123.248 41.2982 123.09 41.365 122.88 41.365C122.67 41.365 122.513 41.2982 122.408 41.1813C122.303 41.0643 122.233 40.8972 122.233 40.6967V40.1955C122.233 39.995 122.286 39.8279 122.408 39.7109C122.513 39.594 122.67 39.5271 122.88 39.5271C123.073 39.5271 123.213 39.594 123.318 39.7109V38.8755H123.685V41.3149H123.37L123.388 41.3316Z" fill="#795035"/>
</g>
<defs>
<clipPath id="clip0_133_3425">
<rect width="40.7871" height="15.4386" fill="white" transform="translate(15 25.5614)"/>
</clipPath>
<clipPath id="clip1_133_3425">
<rect width="59.071" height="15.4386" fill="white" transform="translate(64.929 26.5614)"/>
</clipPath>
</defs>
</svg>
