<svg width="331" height="128" viewBox="0 0 331 128" fill="none" xmlns="http://www.w3.org/2000/svg">
<path d="M43.3587 127C13.1757 127 0 108.274 0 84.5457V58.9444C0 25.9926 21.6656 13.1641 47.0799 13.1641C77.759 13.1641 91.1828 30.1011 91.1828 47.0382C91.1828 71.745 66.2371 77.81 55.2389 81.052C52.069 81.9744 40.3817 85.4959 37.7631 86.2785C27.4816 89.297 24.5323 92.6788 24.5323 96.5078C24.5323 103.048 30.1554 108.721 43.3587 108.721C54.853 108.721 63.2326 104.753 64.6384 92.595H88.6469C86.1937 111.824 74.7545 127 43.3587 127V127ZM46.06 31.4986C32.7189 31.4986 23.981 40.554 23.981 55.9818V72.1643C23.981 72.1643 42.0356 66.826 49.5607 64.5063C55.8729 62.5778 67.1743 58.4972 67.1743 48.4077C67.1743 39.6038 60.1454 31.5265 46.06 31.5265" fill="#2B2B2B"/>
<path d="M101.381 121.634C100.526 118.057 100.692 112.327 101.822 104.418C103.531 92.7628 106.811 81.695 111.662 71.2142C112.848 68.6149 114.474 66.7144 116.514 65.5126C118.553 64.3108 121.255 63.6959 124.59 63.6959C126.409 63.6959 127.622 63.9195 128.284 64.3667C128.945 64.8139 129.166 65.6803 128.973 66.91C128.752 68.3354 127.567 71.5775 125.445 76.5804C123.984 80.1578 122.798 83.2881 121.861 85.9153C120.924 88.5705 119.959 91.8405 119.022 95.7813C122.495 88.7941 126.299 82.8689 130.434 78.0337C134.568 73.1986 138.62 69.5931 142.562 67.2175C146.504 64.8418 150.087 63.668 153.257 63.668C156.427 63.668 158.549 64.3946 159.624 65.82C160.699 67.2454 160.975 69.4534 160.506 72.416C160.038 75.3786 158.301 80.4653 155.352 88.0115C154.111 91.2256 153.202 93.6572 152.678 95.2782C158.99 84.2663 165.33 76.245 171.698 71.2142C178.065 66.1834 183.66 63.6959 188.457 63.6959C194.355 63.6959 196.753 66.6026 195.706 72.4439C195.072 75.9376 192.95 82.254 189.339 91.3933C186.251 99.1911 184.487 104.334 184.046 106.849C183.412 110.427 184.377 112.215 186.968 112.215C188.732 112.215 191.048 111.125 193.887 108.917C196.726 106.737 200.668 103.16 205.684 98.2408C206.98 96.9831 208.303 96.3682 209.654 96.3682C210.811 96.3682 211.638 96.8993 212.107 97.9893C212.575 99.0513 212.631 100.533 212.272 102.433C211.583 106.011 210.232 108.806 208.165 110.762C203.452 115.513 198.628 119.398 193.694 122.445C188.76 125.491 183.523 127.028 177.955 127.028C173.462 127.028 170.264 125.715 168.445 123.059C166.598 120.432 166.102 116.575 166.956 111.572C167.397 109.057 168.776 104.585 171.146 98.129C173.296 92.4833 174.537 88.5984 174.923 86.4464C175.171 85.021 174.812 84.2943 173.82 84.2943C172.662 84.2943 170.733 85.8035 168.059 88.7941C165.385 91.7846 162.574 95.7534 159.597 100.7C156.62 105.619 154.029 110.818 151.796 116.296C150.115 120.6 148.516 123.451 146.972 124.904C145.456 126.329 143.279 127.056 140.467 127.056C137.656 127.056 135.588 125.631 134.568 122.836C133.548 120.013 133.383 116.575 134.017 112.551C134.568 109.141 135.781 104.222 137.711 97.7657C139.337 92.0361 140.302 88.263 140.577 86.4743C140.798 85.0489 140.412 84.3222 139.447 84.3222C138.097 84.3222 136.14 85.9433 133.576 89.1574C131.013 92.3715 128.366 96.508 125.665 101.511C122.964 106.542 120.676 111.461 118.774 116.296C117.148 120.516 115.577 123.339 114.088 124.82C112.572 126.302 110.45 127.028 107.721 127.028C104.358 127.028 102.263 125.239 101.408 121.662L101.381 121.634Z" fill="#2B2B2B"/>
<path d="M245.076 97.9887C244.635 96.9266 243.808 96.3676 242.65 96.3676C241.299 96.3676 239.976 96.9825 238.653 98.2402C233.692 103.075 229.778 106.625 226.938 108.861C224.099 111.097 221.894 112.215 220.295 112.215C218.614 112.215 217.539 111.488 217.098 110.063C216.657 108.637 216.712 106.569 217.208 103.886C217.87 100.392 220.213 93.7125 224.265 83.8745C227.545 75.7134 229.392 70.5149 229.833 68.2789C230.412 65.2325 228.399 63.6953 223.796 63.6953C220.819 63.6953 218.531 64.2263 216.96 65.3164C215.389 66.3784 213.956 68.3628 212.605 71.2415C209.959 76.6916 207.533 82.5888 205.328 88.9053C203.123 95.2217 201.662 100.392 200.918 104.417C199.65 111.236 199.953 116.687 201.8 120.823C203.647 124.931 207.423 127 213.184 127C220.792 127 230.026 121.578 240.969 110.733C243.064 108.777 244.469 105.982 245.186 102.405C245.572 100.532 245.517 99.0507 245.076 97.9607V97.9887Z" fill="#2B2B2B"/>
<path d="M216.6 55.3672C221.204 52.6003 224.511 52.7121 227.35 52.3208C232.836 51.5102 236.529 50.3923 238.9 48.911C241.849 47.0943 243.972 45.2497 245.019 41.1971C245.874 37.8712 245.405 35.216 243.613 33.2316C241.794 31.2473 239.065 30.1293 235.399 29.8778C231.347 29.5983 227.654 30.5206 224.318 32.7006C221.672 34.4334 219.825 36.6135 218.723 39.2407C218.668 39.3525 218.585 39.4643 218.53 39.604C217.124 43.1535 215.746 50.4761 215.084 54.361C214.946 55.2275 215.856 55.8423 216.6 55.3952V55.3672Z" fill="#2B2B2B"/>
<path d="M288.763 97.989C289.204 99.0511 289.204 100.532 288.791 102.433C288.019 106.01 286.558 108.805 284.436 110.762C279.584 115.513 274.595 119.398 269.468 122.444C264.341 125.491 258.966 127.028 253.315 127.028C245.542 127.028 240.498 123.45 238.155 116.268C235.812 109.113 235.757 99.8336 237.99 88.4584C240.14 77.5304 244.026 65.0651 249.677 51.0907C255.355 37.1162 262.026 25.0982 269.716 15.0645C277.462 5.03081 285.29 0 293.173 0C297.639 0 300.698 1.98438 302.38 5.98107C304.061 9.97777 304.089 15.6794 302.463 23.1138C300.147 33.7903 294.441 46.1437 285.428 60.202C276.469 74.2603 265.499 88.2069 252.544 101.986C252.406 105.675 252.902 108.274 254.005 109.839C255.107 111.404 256.816 112.187 259.131 112.187C262.77 112.187 266.188 111.125 269.385 109.029C272.583 106.933 276.883 103.327 282.258 98.2126C283.609 96.9549 284.932 96.34 286.282 96.34C287.44 96.34 288.239 96.871 288.68 97.961L288.763 97.989ZM277.848 24.4833C273.63 31.9177 269.413 41.1408 265.141 52.1807C260.896 63.1926 257.643 73.7852 255.383 83.9027C263.928 73.4219 271.205 62.9131 277.241 52.3763C283.278 41.8396 287.247 32.2531 289.094 23.561C290.527 16.7414 289.976 13.3596 287.385 13.3596C285.262 13.3596 282.093 17.0768 277.875 24.5112L277.848 24.4833Z" fill="#2B2B2B"/>
<path d="M329.588 103.188C330.001 104.25 330.249 106.066 329.67 108.023C328.733 111.181 326.996 113.417 324.929 115.765C321.539 119.37 317.128 121.634 312.608 123.786C308.087 125.938 303.043 127 297.475 127C288.985 127 282.976 124.429 279.393 119.286C275.81 114.144 274.927 107.156 276.802 98.3803C278.125 92.2036 280.661 86.4461 284.41 81.1079C288.158 75.7696 292.706 71.5493 298.054 68.4191C303.401 65.2888 309.025 63.7236 314.923 63.7236C320.161 63.7236 324.02 65.2608 326.5 68.3632C328.954 71.4655 329.56 75.6578 328.32 80.9402C326.886 87.1169 323.441 92.4272 317.983 96.8711C312.553 101.315 304.228 104.809 293.065 107.408C294.278 111.544 297.42 113.585 302.492 113.585C306.13 113.585 309.328 112.746 312.057 111.041C314.813 109.336 319.003 107.464 323.055 103.439C324.433 102.098 325.784 101.427 327.134 101.427C328.292 101.427 329.146 102.125 329.588 103.216V103.188ZM299.928 82.673C296.786 86.53 294.608 91.1975 293.423 96.6475L293.368 96.927C298.908 95.6693 303.512 93.7967 307.123 91.2813C310.734 88.7659 312.911 85.8592 313.683 82.5612C314.069 80.8563 313.903 79.4868 313.187 78.4527C312.47 77.4186 311.312 76.9155 309.686 76.9155C306.351 76.9155 303.098 78.844 299.956 82.701L299.928 82.673Z" fill="#2B2B2B"/>
</svg>
