<svg width="41" height="17" viewBox="0 0 41 17" fill="none" xmlns="http://www.w3.org/2000/svg">
<path d="M5.2556 16.4998C1.59706 16.4998 0 14.1406 0 11.1512V7.92581C0 3.7744 2.62613 2.1582 5.70665 2.1582C9.42533 2.1582 11.0525 4.29201 11.0525 6.42581C11.0525 9.53848 8.02874 10.3026 6.69563 10.711C6.3114 10.8272 4.89476 11.2709 4.57735 11.3695C3.33111 11.7498 2.97361 12.1758 2.97361 12.6582C2.97361 13.4821 3.6552 14.1969 5.2556 14.1969C6.64885 14.1969 7.66455 13.6969 7.83495 12.1652H10.7451C10.4477 14.5878 9.06115 16.4998 5.2556 16.4998V16.4998ZM5.58303 4.46806C3.96592 4.46806 2.90678 5.60891 2.90678 7.55257V9.5913C2.90678 9.5913 5.09522 8.91877 6.00735 8.62651C6.77247 8.38355 8.14234 7.86947 8.14234 6.59834C8.14234 5.48919 7.29035 4.47158 5.58303 4.47158" fill="#FFB71B"/>
<path d="M12.2882 15.8243C12.1847 15.3736 12.2047 14.6518 12.3417 13.6553C12.5488 12.187 12.9464 10.7926 13.5345 9.47219C13.6782 9.14472 13.8753 8.90529 14.1225 8.75388C14.3698 8.60247 14.6972 8.52501 15.1015 8.52501C15.322 8.52501 15.469 8.55317 15.5492 8.60951C15.6294 8.66585 15.6561 8.77501 15.6327 8.92994C15.606 9.10951 15.4623 9.51796 15.205 10.1482C15.028 10.5989 14.8843 10.9933 14.7707 11.3243C14.6571 11.6588 14.5402 12.0708 14.4266 12.5673C14.8475 11.687 15.3086 10.9405 15.8098 10.3313C16.311 9.72219 16.8021 9.26796 17.2799 8.96867C17.7577 8.66937 18.192 8.52148 18.5762 8.52148C18.9605 8.52148 19.2177 8.61303 19.348 8.79261C19.4784 8.97219 19.5118 9.25036 19.455 9.6236C19.3982 9.99684 19.1877 10.6377 18.8302 11.5884C18.6798 11.9933 18.5696 12.2997 18.5061 12.5039C19.2712 11.1166 20.0397 10.106 20.8115 9.47219C21.5833 8.83839 22.2615 8.52501 22.8429 8.52501C23.5579 8.52501 23.8486 8.8912 23.7216 9.62712C23.6447 10.0673 23.3875 10.863 22.9498 12.0144C22.5756 12.9968 22.3617 13.6447 22.3083 13.9616C22.2314 14.4123 22.3484 14.6377 22.6625 14.6377C22.8763 14.6377 23.1569 14.5004 23.5011 14.2222C23.8452 13.9475 24.323 13.4968 24.9311 12.8771C25.0881 12.7187 25.2485 12.6412 25.4122 12.6412C25.5525 12.6412 25.6528 12.7081 25.7096 12.8454C25.7664 12.9792 25.773 13.1659 25.7296 13.4053C25.6461 13.856 25.4824 14.2081 25.2318 14.4546C24.6604 15.0532 24.0757 15.5426 23.4777 15.9264C22.8796 16.3102 22.2448 16.5039 21.5699 16.5039C21.0253 16.5039 20.6377 16.3384 20.4172 16.0039C20.1934 15.6729 20.1332 15.187 20.2368 14.5567C20.2902 14.2398 20.4573 13.6764 20.7446 12.863C21.0052 12.1518 21.1556 11.6623 21.2024 11.3912C21.2324 11.2116 21.189 11.1201 21.0687 11.1201C20.9284 11.1201 20.6945 11.3102 20.3704 11.687C20.0463 12.0637 19.7056 12.5637 19.3447 13.187C18.9839 13.8067 18.6698 14.4616 18.3992 15.1518C18.1954 15.694 18.0016 16.0532 17.8145 16.2363C17.6307 16.4158 17.3668 16.5074 17.026 16.5074C16.6852 16.5074 16.4346 16.3278 16.311 15.9757C16.1873 15.6201 16.1673 15.187 16.2441 14.6799C16.311 14.2504 16.458 13.6306 16.6919 12.8173C16.889 12.0954 17.0059 11.6201 17.0393 11.3947C17.0661 11.2151 17.0193 11.1236 16.9023 11.1236C16.7386 11.1236 16.5014 11.3278 16.1907 11.7328C15.88 12.1377 15.5592 12.6588 15.2318 13.2891C14.9043 13.9229 14.627 14.5426 14.3965 15.1518C14.1994 15.6835 14.0089 16.0391 13.8285 16.2257C13.6447 16.4123 13.3875 16.5039 13.0567 16.5039C12.6491 16.5039 12.3952 16.2785 12.2916 15.8278L12.2882 15.8243Z" fill="#585A63"/>
<path d="M29.7075 12.8448C29.654 12.711 29.5538 12.6406 29.4134 12.6406C29.2497 12.6406 29.0893 12.7181 28.929 12.8765C28.3276 13.4857 27.8531 13.9329 27.509 14.2146C27.1649 14.4962 26.8976 14.6371 26.7038 14.6371C26.5 14.6371 26.3697 14.5455 26.3162 14.366C26.2627 14.1864 26.2694 13.9258 26.3296 13.5878C26.4098 13.1477 26.6938 12.3061 27.1849 11.0667C27.5825 10.0385 27.8063 9.38357 27.8598 9.10188C27.93 8.71808 27.6861 8.52441 27.1281 8.52441C26.7673 8.52441 26.4899 8.59132 26.2995 8.72864C26.1091 8.86244 25.9353 9.11244 25.7716 9.47512C25.4509 10.1617 25.1568 10.9047 24.8895 11.7005C24.6223 12.4962 24.4452 13.1477 24.355 13.6547C24.2013 14.5139 24.238 15.2005 24.4619 15.7216C24.6857 16.2392 25.1435 16.4998 25.8418 16.4998C26.7639 16.4998 27.8832 15.8167 29.2096 14.4505C29.4635 14.204 29.6339 13.8519 29.7208 13.4012C29.7676 13.1653 29.7609 12.9786 29.7075 12.8413V12.8448Z" fill="#585A63"/>
<path d="M26.2558 7.47521C26.8137 7.12662 27.2147 7.1407 27.5588 7.09141C28.2237 6.9893 28.6714 6.84845 28.9587 6.66183C29.3162 6.43296 29.5735 6.20056 29.7005 5.69C29.804 5.27099 29.7472 4.93648 29.5301 4.68648C29.3096 4.43648 28.9788 4.29563 28.5344 4.26394C28.0433 4.22873 27.5956 4.34493 27.1913 4.61958C26.8705 4.83789 26.6467 5.11253 26.513 5.44352C26.5064 5.45761 26.4963 5.47169 26.4896 5.4893C26.3192 5.93648 26.1522 6.85901 26.072 7.34845C26.0553 7.45761 26.1656 7.53507 26.2558 7.47873V7.47521Z" fill="#B0B720"/>
<path d="M35.0009 12.8451C35.0543 12.9789 35.0543 13.1655 35.0042 13.4049C34.9107 13.8556 34.7336 14.2077 34.4763 14.4542C33.8883 15.0528 33.2835 15.5423 32.6621 15.9261C32.0406 16.3099 31.3891 16.5035 30.7042 16.5035C29.762 16.5035 29.1506 16.0528 28.8666 15.1479C28.5826 14.2465 28.5759 13.0775 28.8465 11.6444C29.1071 10.2676 29.5782 8.69718 30.2632 6.93662C30.9514 5.17606 31.76 3.66197 32.6922 2.39789C33.631 1.1338 34.5799 0.5 35.5355 0.5C36.0767 0.5 36.4476 0.75 36.6514 1.25352C36.8552 1.75704 36.8585 2.47535 36.6614 3.41197C36.3808 4.75704 35.6892 6.31338 34.5966 8.08451C33.5107 9.85563 32.181 11.6127 30.6106 13.3486C30.5939 13.8134 30.6541 14.1408 30.7877 14.338C30.9214 14.5352 31.1285 14.6338 31.4092 14.6338C31.8502 14.6338 32.2645 14.5 32.6521 14.2359C33.0396 13.9718 33.5609 13.5176 34.2124 12.8732C34.3761 12.7148 34.5365 12.6373 34.7002 12.6373C34.8405 12.6373 34.9374 12.7042 34.9909 12.8415L35.0009 12.8451ZM33.6778 3.58451C33.1666 4.52113 32.6554 5.6831 32.1375 7.07394C31.623 8.46127 31.2287 9.79577 30.9548 11.0704C31.9905 9.75 32.8726 8.42606 33.6043 7.09859C34.336 5.77113 34.8171 4.56338 35.041 3.46831C35.2147 2.60916 35.1479 2.1831 34.8338 2.1831C34.5766 2.1831 34.1923 2.65141 33.6811 3.58803L33.6778 3.58451Z" fill="#585A63"/>
<path d="M39.9519 13.5002C40.002 13.634 40.0321 13.8628 39.9619 14.1093C39.8483 14.5072 39.6378 14.7889 39.3872 15.0847C38.9763 15.5389 38.4417 15.8241 37.8938 16.0952C37.3458 16.3664 36.7344 16.5002 36.0595 16.5002C35.0304 16.5002 34.302 16.1762 33.8677 15.5283C33.4334 14.8804 33.3264 14.0002 33.5536 12.8945C33.714 12.1163 34.0214 11.391 34.4758 10.7185C34.9302 10.0459 35.4815 9.51424 36.1296 9.11987C36.7778 8.7255 37.4594 8.52832 38.1744 8.52832C38.8092 8.52832 39.277 8.72198 39.5777 9.11283C39.875 9.50367 39.9486 10.0318 39.7982 10.6973C39.6245 11.4755 39.2068 12.1445 38.5453 12.7044C37.8871 13.2642 36.8781 13.7044 35.5249 14.0318C35.6719 14.553 36.0528 14.81 36.6676 14.81C37.1086 14.81 37.4962 14.7044 37.8269 14.4896C38.1611 14.2748 38.6689 14.0389 39.16 13.5318C39.3271 13.3628 39.4908 13.2783 39.6545 13.2783C39.7949 13.2783 39.8984 13.3663 39.9519 13.5037V13.5002ZM36.3568 10.9156C35.976 11.4016 35.712 11.9896 35.5683 12.6762L35.5617 12.7114C36.2332 12.553 36.7912 12.3171 37.2289 12.0002C37.6666 11.6833 37.9305 11.3171 38.0241 10.9016C38.0708 10.6868 38.0508 10.5142 37.9639 10.384C37.8771 10.2537 37.7367 10.1903 37.5396 10.1903C37.1353 10.1903 36.7411 10.4333 36.3602 10.9192L36.3568 10.9156Z" fill="#585A63"/>
</svg>
