<svg width="48" height="31" viewBox="0 0 48 31" fill="none" xmlns="http://www.w3.org/2000/svg">
<path fill-rule="evenodd" clip-rule="evenodd" d="M40.9733 0.978516C44.703 0.978516 47.7266 4.00207 47.7266 7.7318C47.7266 11.4615 44.703 14.4851 40.9733 14.4851H38.4973L34.3161 17.9785L34.316 14.4851H33.4798C29.7501 14.4851 26.7266 11.4615 26.7266 7.7318C26.7266 4.00207 29.7501 0.978516 33.4798 0.978516H40.9733Z" fill="white"/>
<circle r="1" transform="matrix(-1 0 0 1 41.2266 7.91602)" fill="#6951BF"/>
<circle r="1" transform="matrix(-1 0 0 1 37.2266 7.91602)" fill="#6951BF"/>
<circle r="1" transform="matrix(-1 0 0 1 33.2266 7.91602)" fill="#6951BF"/>
<circle cx="15.2734" cy="16" r="15" fill="#FFB71B"/>
<path d="M13.1289 19.7451C13.692 21.4775 16.088 24.7233 21.1669 23.8479" stroke="black" stroke-width="2" stroke-linecap="round" stroke-linejoin="round"/>
<circle cx="17.4161" cy="14.7151" r="2.57143" transform="rotate(-18.8315 17.4161 14.7151)" fill="white"/>
<mask id="mask0_422_65" style="mask-type:alpha" maskUnits="userSpaceOnUse" x="14" y="12" width="6" height="6">
<circle cx="17.4161" cy="14.7151" r="2.57143" transform="rotate(-18.8315 17.4161 14.7151)" fill="white"/>
</mask>
<g mask="url(#mask0_422_65)">
<circle cx="18.7706" cy="14.7056" r="2.14286" transform="rotate(-18.8315 18.7706 14.7056)" fill="black"/>
</g>
<circle cx="23.415" cy="14.7151" r="2.57143" transform="rotate(-20.516 23.415 14.7151)" fill="white"/>
<mask id="mask1_422_65" style="mask-type:alpha" maskUnits="userSpaceOnUse" x="20" y="12" width="6" height="6">
<circle cx="23.415" cy="14.7151" r="2.57143" transform="rotate(-20.516 23.415 14.7151)" fill="white"/>
</mask>
<g mask="url(#mask1_422_65)">
<circle cx="24.7697" cy="14.6661" r="2.14286" transform="rotate(-20.516 24.7697 14.6661)" fill="black"/>
</g>
</svg>
